                                      1 ;--------------------------------------------------------
                                      2 ; File Created by SDCC : free open source ANSI-C Compiler
                                      3 ; Version 4.0.3 #11875 (Linux)
                                      4 ;--------------------------------------------------------
                                      5 	.module bullet
                                      6 	.optsdcc -mgbz80
                                      7 	
                                      8 ;--------------------------------------------------------
                                      9 ; Public variables in this module
                                     10 ;--------------------------------------------------------
                                     11 	.globl _bullet_spawn
                                     12 	.globl _bullet_update
                                     13 	.globl _bullet_draw
                                     14 	.globl _bullet_destroy
                                     15 ;--------------------------------------------------------
                                     16 ; special function registers
                                     17 ;--------------------------------------------------------
                                     18 ;--------------------------------------------------------
                                     19 ; ram data
                                     20 ;--------------------------------------------------------
                                     21 	.area _DATA
                                     22 ;--------------------------------------------------------
                                     23 ; absolute external ram data
                                     24 ;--------------------------------------------------------
                                     25 	.area _DABS (ABS)
                                     26 ;--------------------------------------------------------
                                     27 ; global & static initialisations
                                     28 ;--------------------------------------------------------
                                     29 	.area _HOME
                                     30 	.area _GSINIT
                                     31 	.area _GSFINAL
                                     32 	.area _GSINIT
                                     33 ;--------------------------------------------------------
                                     34 ; Home
                                     35 ;--------------------------------------------------------
                                     36 	.area _HOME
                                     37 	.area _HOME
                                     38 ;--------------------------------------------------------
                                     39 ; code
                                     40 ;--------------------------------------------------------
                                     41 	.area _CODE
                                     42 ;src/bullet.c:6: void bullet_spawn(bullet_t *bullet) {
                                     43 ;	---------------------------------
                                     44 ; Function bullet_spawn
                                     45 ; ---------------------------------
      000000                         46 _bullet_spawn::
                                     47 ;src/bullet.c:7: bullet_draw(bullet);
      000000 C1                      48 	pop	bc
      000001 E1                      49 	pop	hl
      000002 E5                      50 	push	hl
      000003 C5                      51 	push	bc
      000004 E5                      52 	push	hl
      000005 CDr5Cr00                53 	call	_bullet_draw
      000008 E8 02                   54 	add	sp, #2
                                     55 ;src/bullet.c:8: }
      00000A C9                      56 	ret
                                     57 ;src/bullet.c:10: void bullet_update(bullet_t *bullet) {
                                     58 ;	---------------------------------
                                     59 ; Function bullet_update
                                     60 ; ---------------------------------
      00000B                         61 _bullet_update::
      00000B E8 FD                   62 	add	sp, #-3
                                     63 ;src/bullet.c:11: if (bullet->disabled) return;
      00000D F8 05                   64 	ldhl	sp,#5
      00000F 2A                      65 	ld	a, (hl+)
      000010 4F                      66 	ld	c, a
      000011 46                      67 	ld	b, (hl)
      000012 21 05 00                68 	ld	hl, #0x0005
      000015 09                      69 	add	hl, bc
      000016 7E                      70 	ld	a, (hl)
      000017 B7                      71 	or	a, a
      000018 20 3F                   72 	jr	NZ, 00106$
                                     73 ;src/bullet.c:12: if (bullet->pos.x < 16 || bullet->pos.x > SCREENWIDTH - 8) {
      00001A 0A                      74 	ld	a, (bc)
      00001B 5F                      75 	ld	e, a
      00001C D6 10                   76 	sub	a, #0x10
      00001E 38 05                   77 	jr	C, 00103$
      000020 3E 98                   78 	ld	a, #0x98
      000022 93                      79 	sub	a, e
      000023 30 08                   80 	jr	NC, 00104$
      000025                         81 00103$:
                                     82 ;src/bullet.c:13: bullet_destroy(bullet);
      000025 C5                      83 	push	bc
      000026 CDrA2r00                84 	call	_bullet_destroy
      000029 E8 02                   85 	add	sp, #2
                                     86 ;src/bullet.c:14: return;
      00002B 18 2C                   87 	jr	00106$
      00002D                         88 00104$:
                                     89 ;src/bullet.c:16: bullet->pos.x += (bullet->direction == fa_left ? -bullet->spd : bullet->spd);
      00002D 33                      90 	inc	sp
      00002E 33                      91 	inc	sp
      00002F C5                      92 	push	bc
      000030 21 04 00                93 	ld	hl, #0x0004
      000033 09                      94 	add	hl, bc
      000034 7E                      95 	ld	a, (hl)
      000035 F8 02                   96 	ldhl	sp,	#2
      000037 77                      97 	ld	(hl), a
      000038 69                      98 	ld	l, c
      000039 60                      99 	ld	h, b
      00003A 23                     100 	inc	hl
      00003B 23                     101 	inc	hl
      00003C 23                     102 	inc	hl
      00003D 56                     103 	ld	d, (hl)
      00003E F8 02                  104 	ldhl	sp,	#2
      000040 7E                     105 	ld	a, (hl)
      000041 B7                     106 	or	a, a
      000042 20 05                  107 	jr	NZ, 00108$
      000044 AF                     108 	xor	a, a
      000045 92                     109 	sub	a, d
      000046 77                     110 	ld	(hl), a
      000047 18 03                  111 	jr	00109$
      000049                        112 00108$:
      000049 F8 02                  113 	ldhl	sp,	#2
      00004B 72                     114 	ld	(hl), d
      00004C                        115 00109$:
      00004C F8 02                  116 	ldhl	sp,	#2
      00004E 7E                     117 	ld	a, (hl)
      00004F 83                     118 	add	a, e
      000050 E1                     119 	pop	hl
      000051 E5                     120 	push	hl
      000052 77                     121 	ld	(hl), a
                                    122 ;src/bullet.c:17: bullet_draw(bullet);
      000053 C5                     123 	push	bc
      000054 CDr5Cr00               124 	call	_bullet_draw
      000057 E8 02                  125 	add	sp, #2
      000059                        126 00106$:
                                    127 ;src/bullet.c:18: }
      000059 E8 03                  128 	add	sp, #3
      00005B C9                     129 	ret
                                    130 ;src/bullet.c:20: void bullet_draw(bullet_t *bullet) {
                                    131 ;	---------------------------------
                                    132 ; Function bullet_draw
                                    133 ; ---------------------------------
      00005C                        134 _bullet_draw::
      00005C E8 FC                  135 	add	sp, #-4
                                    136 ;src/bullet.c:21: set_sprite_tile(bullet->sprite, bullet->sprite);
      00005E F8 06                  137 	ldhl	sp,	#6
      000060 2A                     138 	ld	a, (hl+)
      000061 5E                     139 	ld	e, (hl)
      000062 F8 00                  140 	ldhl	sp,	#0
      000064 22                     141 	ld	(hl+), a
      000065 73                     142 	ld	(hl), e
      000066 C1                     143 	pop	bc
      000067 C5                     144 	push	bc
      000068 03                     145 	inc	bc
      000069 03                     146 	inc	bc
      00006A 0A                     147 	ld	a, (bc)
      00006B 57                     148 	ld	d, a
      00006C 5A                     149 	ld	e, d
                                    150 ;/opt/gbdk/include/gb/gb.h:610: shadow_OAM[nb].tile=tile; 
      00006D 6A                     151 	ld	l, d
      00006E 26 00                  152 	ld	h, #0x00
      000070 29                     153 	add	hl, hl
      000071 29                     154 	add	hl, hl
      000072 3Er00                  155 	ld	a, #<(_shadow_OAM)
      000074 85                     156 	add	a, l
      000075 6F                     157 	ld	l, a
      000076 3Es00                  158 	ld	a, #>(_shadow_OAM)
      000078 8C                     159 	adc	a, h
      000079 67                     160 	ld	h, a
      00007A 23                     161 	inc	hl
      00007B 23                     162 	inc	hl
      00007C 73                     163 	ld	(hl), e
                                    164 ;src/bullet.c:22: move_sprite(bullet->sprite, bullet->pos.x, bullet->pos.y);
      00007D E1                     165 	pop	hl
      00007E E5                     166 	push	hl
      00007F 23                     167 	inc	hl
      000080 7E                     168 	ld	a, (hl)
      000081 F8 02                  169 	ldhl	sp,	#2
      000083 77                     170 	ld	(hl), a
      000084 D1                     171 	pop	de
      000085 D5                     172 	push	de
      000086 1A                     173 	ld	a, (de)
      000087 F8 03                  174 	ldhl	sp,	#3
      000089 77                     175 	ld	(hl), a
      00008A 0A                     176 	ld	a, (bc)
      00008B 5F                     177 	ld	e, a
                                    178 ;/opt/gbdk/include/gb/gb.h:652: OAM_item_t * itm = &shadow_OAM[nb];
      00008C 01r00r00               179 	ld	bc, #_shadow_OAM+0
      00008F 16 00                  180 	ld	d, #0x00
      000091 6B                     181 	ld	l, e
      000092 62                     182 	ld	h, d
      000093 29                     183 	add	hl, hl
      000094 29                     184 	add	hl, hl
      000095 09                     185 	add	hl, bc
      000096 4D                     186 	ld	c, l
      000097 44                     187 	ld	b, h
                                    188 ;/opt/gbdk/include/gb/gb.h:653: itm->y=y, itm->x=x; 
      000098 F8 02                  189 	ldhl	sp,	#2
      00009A 2A                     190 	ld	a, (hl+)
      00009B 02                     191 	ld	(bc), a
      00009C 03                     192 	inc	bc
      00009D 7E                     193 	ld	a, (hl)
      00009E 02                     194 	ld	(bc), a
                                    195 ;src/bullet.c:22: move_sprite(bullet->sprite, bullet->pos.x, bullet->pos.y);
                                    196 ;src/bullet.c:23: }
      00009F E8 04                  197 	add	sp, #4
      0000A1 C9                     198 	ret
                                    199 ;src/bullet.c:25: void bullet_destroy(bullet_t *bullet) {
                                    200 ;	---------------------------------
                                    201 ; Function bullet_destroy
                                    202 ; ---------------------------------
      0000A2                        203 _bullet_destroy::
                                    204 ;src/bullet.c:26: bullet->disabled = true;
      0000A2 C1                     205 	pop	bc
      0000A3 D1                     206 	pop	de
      0000A4 D5                     207 	push	de
      0000A5 C5                     208 	push	bc
      0000A6 21 05 00               209 	ld	hl, #0x0005
      0000A9 19                     210 	add	hl, de
      0000AA 36 01                  211 	ld	(hl), #0x01
                                    212 ;src/bullet.c:27: set_sprite_tile(bullet->sprite, S_NOTHING);
      0000AC 13                     213 	inc	de
      0000AD 13                     214 	inc	de
      0000AE 1A                     215 	ld	a, (de)
      0000AF 4F                     216 	ld	c, a
                                    217 ;/opt/gbdk/include/gb/gb.h:610: shadow_OAM[nb].tile=tile; 
      0000B0 06 00                  218 	ld	b, #0x00
      0000B2 69                     219 	ld	l, c
      0000B3 60                     220 	ld	h, b
      0000B4 29                     221 	add	hl, hl
      0000B5 29                     222 	add	hl, hl
      0000B6 01r00r00               223 	ld	bc, #_shadow_OAM
      0000B9 09                     224 	add	hl, bc
      0000BA 23                     225 	inc	hl
      0000BB 23                     226 	inc	hl
      0000BC 36 1F                  227 	ld	(hl), #0x1f
                                    228 ;src/bullet.c:28: move_sprite(bullet->sprite, 0, 0);
      0000BE 1A                     229 	ld	a, (de)
      0000BF 5F                     230 	ld	e, a
                                    231 ;/opt/gbdk/include/gb/gb.h:652: OAM_item_t * itm = &shadow_OAM[nb];
      0000C0 01r00r00               232 	ld	bc, #_shadow_OAM+0
      0000C3 16 00                  233 	ld	d, #0x00
      0000C5 6B                     234 	ld	l, e
      0000C6 62                     235 	ld	h, d
      0000C7 29                     236 	add	hl, hl
      0000C8 29                     237 	add	hl, hl
      0000C9 09                     238 	add	hl, bc
                                    239 ;/opt/gbdk/include/gb/gb.h:653: itm->y=y, itm->x=x; 
      0000CA 3E 00                  240 	ld	a, #0x00
      0000CC 22                     241 	ld	(hl+), a
      0000CD 36 00                  242 	ld	(hl), #0x00
                                    243 ;src/bullet.c:28: move_sprite(bullet->sprite, 0, 0);
                                    244 ;src/bullet.c:29: }
      0000CF C9                     245 	ret
                                    246 	.area _CODE
                                    247 	.area _CABS (ABS)
