                                      1 ;--------------------------------------------------------
                                      2 ; File Created by SDCC : free open source ANSI-C Compiler
                                      3 ; Version 4.0.3 #11875 (Linux)
                                      4 ;--------------------------------------------------------
                                      5 	.module game
                                      6 	.optsdcc -mgbz80
                                      7 	
                                      8 ;--------------------------------------------------------
                                      9 ; Public variables in this module
                                     10 ;--------------------------------------------------------
                                     11 	.globl _is_prime
                                     12 	.globl _abs
                                     13 	.globl _beam_update
                                     14 	.globl _beam_spawn
                                     15 	.globl _hud_start
                                     16 	.globl _player_update
                                     17 	.globl _player_input
                                     18 	.globl _player_spawn
                                     19 	.globl _item_update
                                     20 	.globl _item_spawn
                                     21 	.globl _spike_update
                                     22 	.globl _spike_spawn
                                     23 	.globl _heatball_update
                                     24 	.globl _heatball_spawn
                                     25 	.globl _skulltron_update
                                     26 	.globl _skulltron_spawn
                                     27 	.globl _turret_update
                                     28 	.globl _turret_spawn
                                     29 	.globl _splitter_update
                                     30 	.globl _splitter_spawn
                                     31 	.globl _drone_update
                                     32 	.globl _drone_spawn
                                     33 	.globl _bullet_update
                                     34 	.globl _coin_spawn
                                     35 	.globl _arand
                                     36 	.globl _initarand
                                     37 	.globl _set_sprite_data
                                     38 	.globl _set_bkg_tiles
                                     39 	.globl _set_bkg_data
                                     40 	.globl _already_used
                                     41 	.globl _beams
                                     42 	.globl _rand_beam_x
                                     43 	.globl _rand_seed_factor
                                     44 	.globl __b
                                     45 	.globl _b
                                     46 	.globl _global_beam_spd
                                     47 	.globl _beam_count
                                     48 	.globl _enemy_bullet
                                     49 	.globl _player_bullet
                                     50 	.globl _item
                                     51 	.globl _spike
                                     52 	.globl _heatball
                                     53 	.globl _turret2
                                     54 	.globl _turret
                                     55 	.globl _skullperior
                                     56 	.globl _skulltron
                                     57 	.globl _splitter
                                     58 	.globl _drone
                                     59 	.globl _coin
                                     60 	.globl _player
                                     61 	.globl _game_start
                                     62 	.globl _game_input
                                     63 	.globl _game_update
                                     64 	.globl _game_next_enemy
                                     65 	.globl _game_spawn_item
                                     66 	.globl _game_new_beam
                                     67 	.globl _game_beam_speed_medium
                                     68 	.globl _game_beam_speed_hard
                                     69 ;--------------------------------------------------------
                                     70 ; special function registers
                                     71 ;--------------------------------------------------------
                                     72 ;--------------------------------------------------------
                                     73 ; ram data
                                     74 ;--------------------------------------------------------
                                     75 	.area _DATA
      000000                         76 _paused:
      000000                         77 	.ds 1
      000001                         78 _last_enemy:
      000001                         79 	.ds 1
      000002                         80 _player::
      000002                         81 	.ds 23
      000019                         82 _coin::
      000019                         83 	.ds 2
      00001B                         84 _drone::
      00001B                         85 	.ds 18
      00002D                         86 _splitter::
      00002D                         87 	.ds 18
      00003F                         88 _skulltron::
      00003F                         89 	.ds 22
      000055                         90 _skullperior::
      000055                         91 	.ds 22
      00006B                         92 _turret::
      00006B                         93 	.ds 21
      000080                         94 _turret2::
      000080                         95 	.ds 21
      000095                         96 _heatball::
      000095                         97 	.ds 18
      0000A7                         98 _spike::
      0000A7                         99 	.ds 18
      0000B9                        100 _item::
      0000B9                        101 	.ds 4
      0000BD                        102 _player_bullet::
      0000BD                        103 	.ds 6
      0000C3                        104 _enemy_bullet::
      0000C3                        105 	.ds 6
      0000C9                        106 _beam_count::
      0000C9                        107 	.ds 1
      0000CA                        108 _global_beam_spd::
      0000CA                        109 	.ds 1
      0000CB                        110 _b::
      0000CB                        111 	.ds 1
      0000CC                        112 __b::
      0000CC                        113 	.ds 1
      0000CD                        114 _rand_seed_factor::
      0000CD                        115 	.ds 1
      0000CE                        116 _rand_beam_x::
      0000CE                        117 	.ds 1
      0000CF                        118 _beams::
      0000CF                        119 	.ds 28
      0000EB                        120 _already_used::
      0000EB                        121 	.ds 1
                                    122 ;--------------------------------------------------------
                                    123 ; absolute external ram data
                                    124 ;--------------------------------------------------------
                                    125 	.area _DABS (ABS)
                                    126 ;--------------------------------------------------------
                                    127 ; global & static initialisations
                                    128 ;--------------------------------------------------------
                                    129 	.area _HOME
                                    130 	.area _GSINIT
                                    131 	.area _GSFINAL
                                    132 	.area _GSINIT
                                    133 ;src/game.h:7: static BOOL paused = false;
      000000 21r00r00               134 	ld	hl, #_paused
      000003 36 00                  135 	ld	(hl), #0x00
                                    136 ;src/game.h:11: static enemy_t last_enemy = E_HEATBALL;
      000005 21r01r00               137 	ld	hl, #_last_enemy
      000008 36 06                  138 	ld	(hl), #0x06
                                    139 ;src/game.c:23: player_t player = {{16, 78}, {16, 78}, {{0, 7, 0, 3, 4, 7, 4}, fa_right, 2, false, false, true, false}, 3, 0, 3, true, false, 0};
      00000A 21r02r00               140 	ld	hl, #_player
      00000D 36 10                  141 	ld	(hl), #0x10
      00000F 21r03r00               142 	ld	hl, #(_player + 0x0001)
      000012 36 4E                  143 	ld	(hl), #0x4e
      000014 21r04r00               144 	ld	hl, #(_player + 0x0002)
      000017 36 10                  145 	ld	(hl), #0x10
      000019 21r05r00               146 	ld	hl, #(_player + 0x0003)
      00001C 36 4E                  147 	ld	(hl), #0x4e
      00001E 21r06r00               148 	ld	hl, #(_player + 0x0004)
      000021 36 00                  149 	ld	(hl), #0x00
      000023 21r07r00               150 	ld	hl, #(_player + 0x0005)
      000026 36 07                  151 	ld	(hl), #0x07
      000028 21r08r00               152 	ld	hl, #(_player + 0x0006)
      00002B 36 00                  153 	ld	(hl), #0x00
      00002D 21r09r00               154 	ld	hl, #(_player + 0x0007)
      000030 36 03                  155 	ld	(hl), #0x03
      000032 21r0Ar00               156 	ld	hl, #(_player + 0x0008)
      000035 36 04                  157 	ld	(hl), #0x04
      000037 21r0Br00               158 	ld	hl, #(_player + 0x0009)
      00003A 36 07                  159 	ld	(hl), #0x07
      00003C 21r0Cr00               160 	ld	hl, #(_player + 0x000a)
      00003F 36 04                  161 	ld	(hl), #0x04
      000041 21r0Dr00               162 	ld	hl, #(_player + 0x000b)
      000044 36 01                  163 	ld	(hl), #0x01
      000046 21r0Er00               164 	ld	hl, #(_player + 0x000c)
      000049 36 02                  165 	ld	(hl), #0x02
      00004B 21r0Fr00               166 	ld	hl, #(_player + 0x000d)
      00004E 36 00                  167 	ld	(hl), #0x00
      000050 21r10r00               168 	ld	hl, #(_player + 0x000e)
      000053 36 00                  169 	ld	(hl), #0x00
      000055 21r11r00               170 	ld	hl, #(_player + 0x000f)
      000058 36 01                  171 	ld	(hl), #0x01
      00005A 21r12r00               172 	ld	hl, #(_player + 0x0010)
      00005D 36 00                  173 	ld	(hl), #0x00
      00005F 21r13r00               174 	ld	hl, #(_player + 0x0011)
      000062 36 03                  175 	ld	(hl), #0x03
      000064 21r14r00               176 	ld	hl, #(_player + 0x0012)
      000067 36 00                  177 	ld	(hl), #0x00
      000069 21r15r00               178 	ld	hl, #(_player + 0x0013)
      00006C 36 03                  179 	ld	(hl), #0x03
      00006E 21r16r00               180 	ld	hl, #(_player + 0x0014)
      000071 36 01                  181 	ld	(hl), #0x01
      000073 21r17r00               182 	ld	hl, #(_player + 0x0015)
      000076 36 00                  183 	ld	(hl), #0x00
      000078 21r18r00               184 	ld	hl, #(_player + 0x0016)
      00007B 36 00                  185 	ld	(hl), #0x00
                                    186 ;src/game.c:24: coin_t coin = {{0, 0}};
      00007D 01r19r00               187 	ld	bc, #_coin+0
      000080 AF                     188 	xor	a, a
      000081 02                     189 	ld	(bc), a
      000082 03                     190 	inc	bc
      000083 AF                     191 	xor	a, a
      000084 02                     192 	ld	(bc), a
                                    193 ;src/game.c:26: drone_t drone = {
      000085 21r1Br00               194 	ld	hl, #_drone
      000088 36 C8                  195 	ld	(hl), #0xc8
      00008A 21r1Cr00               196 	ld	hl, #(_drone + 0x0001)
      00008D 36 C8                  197 	ld	(hl), #0xc8
      00008F 21r1Dr00               198 	ld	hl, #(_drone + 0x0002)
      000092 36 08                  199 	ld	(hl), #0x08
      000094 21r1Er00               200 	ld	hl, #(_drone + 0x0003)
      000097 36 09                  201 	ld	(hl), #0x09
      000099 21r1Fr00               202 	ld	hl, #(_drone + 0x0004)
      00009C 36 08                  203 	ld	(hl), #0x08
      00009E 21r20r00               204 	ld	hl, #(_drone + 0x0005)
      0000A1 36 09                  205 	ld	(hl), #0x09
      0000A3 21r21r00               206 	ld	hl, #(_drone + 0x0006)
      0000A6 36 08                  207 	ld	(hl), #0x08
      0000A8 21r22r00               208 	ld	hl, #(_drone + 0x0007)
      0000AB 36 09                  209 	ld	(hl), #0x09
      0000AD 21r23r00               210 	ld	hl, #(_drone + 0x0008)
      0000B0 36 08                  211 	ld	(hl), #0x08
      0000B2 21r24r00               212 	ld	hl, #(_drone + 0x0009)
      0000B5 36 00                  213 	ld	(hl), #0x00
      0000B7 21r25r00               214 	ld	hl, #(_drone + 0x000a)
      0000BA 36 01                  215 	ld	(hl), #0x01
      0000BC 21r26r00               216 	ld	hl, #(_drone + 0x000b)
      0000BF 36 00                  217 	ld	(hl), #0x00
      0000C1 21r27r00               218 	ld	hl, #(_drone + 0x000c)
      0000C4 36 00                  219 	ld	(hl), #0x00
      0000C6 21r28r00               220 	ld	hl, #(_drone + 0x000d)
      0000C9 36 00                  221 	ld	(hl), #0x00
      0000CB 21r29r00               222 	ld	hl, #(_drone + 0x000e)
      0000CE 36 01                  223 	ld	(hl), #0x01
      0000D0 21r2Ar00               224 	ld	hl, #(_drone + 0x000f)
      0000D3 36 04                  225 	ld	(hl), #0x04
      0000D5 21r2Br00               226 	ld	hl, #(_drone + 0x0010)
      0000D8 36 01                  227 	ld	(hl), #0x01
      0000DA 21r2Cr00               228 	ld	hl, #(_drone + 0x0011)
      0000DD 36 32                  229 	ld	(hl), #0x32
                                    230 ;src/game.c:31: splitter_t splitter = {
      0000DF 21r2Dr00               231 	ld	hl, #_splitter
      0000E2 36 C8                  232 	ld	(hl), #0xc8
      0000E4 21r2Er00               233 	ld	hl, #(_splitter + 0x0001)
      0000E7 36 C8                  234 	ld	(hl), #0xc8
      0000E9 21r2Fr00               235 	ld	hl, #(_splitter + 0x0002)
      0000EC 36 0A                  236 	ld	(hl), #0x0a
      0000EE 21r30r00               237 	ld	hl, #(_splitter + 0x0003)
      0000F1 36 0B                  238 	ld	(hl), #0x0b
      0000F3 21r31r00               239 	ld	hl, #(_splitter + 0x0004)
      0000F6 36 0A                  240 	ld	(hl), #0x0a
      0000F8 21r32r00               241 	ld	hl, #(_splitter + 0x0005)
      0000FB 36 0B                  242 	ld	(hl), #0x0b
      0000FD 21r33r00               243 	ld	hl, #(_splitter + 0x0006)
      000100 36 0A                  244 	ld	(hl), #0x0a
      000102 21r34r00               245 	ld	hl, #(_splitter + 0x0007)
      000105 36 0B                  246 	ld	(hl), #0x0b
      000107 21r35r00               247 	ld	hl, #(_splitter + 0x0008)
      00010A 36 0A                  248 	ld	(hl), #0x0a
      00010C 21r36r00               249 	ld	hl, #(_splitter + 0x0009)
      00010F 36 00                  250 	ld	(hl), #0x00
      000111 21r37r00               251 	ld	hl, #(_splitter + 0x000a)
      000114 36 02                  252 	ld	(hl), #0x02
      000116 21r38r00               253 	ld	hl, #(_splitter + 0x000b)
      000119 36 00                  254 	ld	(hl), #0x00
      00011B 21r39r00               255 	ld	hl, #(_splitter + 0x000c)
      00011E 36 00                  256 	ld	(hl), #0x00
      000120 21r3Ar00               257 	ld	hl, #(_splitter + 0x000d)
      000123 36 00                  258 	ld	(hl), #0x00
      000125 21r3Br00               259 	ld	hl, #(_splitter + 0x000e)
      000128 36 01                  260 	ld	(hl), #0x01
      00012A 21r3Cr00               261 	ld	hl, #(_splitter + 0x000f)
      00012D 36 04                  262 	ld	(hl), #0x04
      00012F 21r3Dr00               263 	ld	hl, #(_splitter + 0x0010)
      000132 36 01                  264 	ld	(hl), #0x01
      000134 21r3Er00               265 	ld	hl, #(_splitter + 0x0011)
      000137 36 32                  266 	ld	(hl), #0x32
                                    267 ;src/game.c:36: skulltron_t skulltron = {
      000139 21r3Fr00               268 	ld	hl, #_skulltron
      00013C 36 C8                  269 	ld	(hl), #0xc8
      00013E 21r40r00               270 	ld	hl, #(_skulltron + 0x0001)
      000141 36 C8                  271 	ld	(hl), #0xc8
      000143 21r41r00               272 	ld	hl, #(_skulltron + 0x0002)
      000146 36 0C                  273 	ld	(hl), #0x0c
      000148 21r42r00               274 	ld	hl, #(_skulltron + 0x0003)
      00014B 36 0D                  275 	ld	(hl), #0x0d
      00014D 21r43r00               276 	ld	hl, #(_skulltron + 0x0004)
      000150 36 0C                  277 	ld	(hl), #0x0c
      000152 21r44r00               278 	ld	hl, #(_skulltron + 0x0005)
      000155 36 0C                  279 	ld	(hl), #0x0c
      000157 21r45r00               280 	ld	hl, #(_skulltron + 0x0006)
      00015A 36 0D                  281 	ld	(hl), #0x0d
      00015C 21r46r00               282 	ld	hl, #(_skulltron + 0x0007)
      00015F 36 0D                  283 	ld	(hl), #0x0d
      000161 21r47r00               284 	ld	hl, #(_skulltron + 0x0008)
      000164 36 0C                  285 	ld	(hl), #0x0c
      000166 21r48r00               286 	ld	hl, #(_skulltron + 0x0009)
      000169 36 00                  287 	ld	(hl), #0x00
      00016B 21r49r00               288 	ld	hl, #(_skulltron + 0x000a)
      00016E 36 01                  289 	ld	(hl), #0x01
      000170 21r4Ar00               290 	ld	hl, #(_skulltron + 0x000b)
      000173 36 00                  291 	ld	(hl), #0x00
      000175 21r4Br00               292 	ld	hl, #(_skulltron + 0x000c)
      000178 36 00                  293 	ld	(hl), #0x00
      00017A 21r4Cr00               294 	ld	hl, #(_skulltron + 0x000d)
      00017D 36 00                  295 	ld	(hl), #0x00
      00017F 21r4Dr00               296 	ld	hl, #(_skulltron + 0x000e)
      000182 36 01                  297 	ld	(hl), #0x01
      000184 21r4Er00               298 	ld	hl, #(_skulltron + 0x000f)
      000187 36 04                  299 	ld	(hl), #0x04
      000189 21r4Fr00               300 	ld	hl, #(_skulltron + 0x0010)
      00018C 36 01                  301 	ld	(hl), #0x01
      00018E 21r50r00               302 	ld	hl, #(_skulltron + 0x0011)
      000191 36 00                  303 	ld	(hl), #0x00
      000193 21r51r00               304 	ld	hl, #(_skulltron + 0x0012)
      000196 36 00                  305 	ld	(hl), #0x00
      000198 21r52r00               306 	ld	hl, #(_skulltron + 0x0013)
      00019B 36 2A                  307 	ld	(hl), #0x2a
      00019D 21r53r00               308 	ld	hl, #(_skulltron + 0x0014)
      0001A0 36 32                  309 	ld	(hl), #0x32
      0001A2 21r54r00               310 	ld	hl, #(_skulltron + 0x0015)
      0001A5 36 00                  311 	ld	(hl), #0x00
                                    312 ;src/game.c:41: skulltron_t skullperior = {
      0001A7 21r55r00               313 	ld	hl, #_skullperior
      0001AA 36 C8                  314 	ld	(hl), #0xc8
      0001AC 21r56r00               315 	ld	hl, #(_skullperior + 0x0001)
      0001AF 36 C8                  316 	ld	(hl), #0xc8
      0001B1 21r57r00               317 	ld	hl, #(_skullperior + 0x0002)
      0001B4 36 0E                  318 	ld	(hl), #0x0e
      0001B6 21r58r00               319 	ld	hl, #(_skullperior + 0x0003)
      0001B9 36 0F                  320 	ld	(hl), #0x0f
      0001BB 21r59r00               321 	ld	hl, #(_skullperior + 0x0004)
      0001BE 36 0E                  322 	ld	(hl), #0x0e
      0001C0 21r5Ar00               323 	ld	hl, #(_skullperior + 0x0005)
      0001C3 36 0E                  324 	ld	(hl), #0x0e
      0001C5 21r5Br00               325 	ld	hl, #(_skullperior + 0x0006)
      0001C8 36 0F                  326 	ld	(hl), #0x0f
      0001CA 21r5Cr00               327 	ld	hl, #(_skullperior + 0x0007)
      0001CD 36 0F                  328 	ld	(hl), #0x0f
      0001CF 21r5Dr00               329 	ld	hl, #(_skullperior + 0x0008)
      0001D2 36 0E                  330 	ld	(hl), #0x0e
      0001D4 21r5Er00               331 	ld	hl, #(_skullperior + 0x0009)
      0001D7 36 00                  332 	ld	(hl), #0x00
      0001D9 21r5Fr00               333 	ld	hl, #(_skullperior + 0x000a)
      0001DC 36 02                  334 	ld	(hl), #0x02
      0001DE 21r60r00               335 	ld	hl, #(_skullperior + 0x000b)
      0001E1 36 00                  336 	ld	(hl), #0x00
      0001E3 21r61r00               337 	ld	hl, #(_skullperior + 0x000c)
      0001E6 36 00                  338 	ld	(hl), #0x00
      0001E8 21r62r00               339 	ld	hl, #(_skullperior + 0x000d)
      0001EB 36 01                  340 	ld	(hl), #0x01
      0001ED 21r63r00               341 	ld	hl, #(_skullperior + 0x000e)
      0001F0 36 01                  342 	ld	(hl), #0x01
      0001F2 21r64r00               343 	ld	hl, #(_skullperior + 0x000f)
      0001F5 36 04                  344 	ld	(hl), #0x04
      0001F7 21r65r00               345 	ld	hl, #(_skullperior + 0x0010)
      0001FA 36 01                  346 	ld	(hl), #0x01
      0001FC 21r66r00               347 	ld	hl, #(_skullperior + 0x0011)
      0001FF 36 00                  348 	ld	(hl), #0x00
      000201 21r67r00               349 	ld	hl, #(_skullperior + 0x0012)
      000204 36 00                  350 	ld	(hl), #0x00
      000206 21r68r00               351 	ld	hl, #(_skullperior + 0x0013)
      000209 36 2C                  352 	ld	(hl), #0x2c
      00020B 21r69r00               353 	ld	hl, #(_skullperior + 0x0014)
      00020E 36 01                  354 	ld	(hl), #0x01
      000210 21r6Ar00               355 	ld	hl, #(_skullperior + 0x0015)
      000213 36 32                  356 	ld	(hl), #0x32
                                    357 ;src/game.c:46: turret_t turret = {
      000215 21r6Br00               358 	ld	hl, #_turret
      000218 36 C8                  359 	ld	(hl), #0xc8
      00021A 21r6Cr00               360 	ld	hl, #(_turret + 0x0001)
      00021D 36 C8                  361 	ld	(hl), #0xc8
      00021F 21r6Dr00               362 	ld	hl, #(_turret + 0x0002)
      000222 36 10                  363 	ld	(hl), #0x10
      000224 21r6Er00               364 	ld	hl, #(_turret + 0x0003)
      000227 36 11                  365 	ld	(hl), #0x11
      000229 21r6Fr00               366 	ld	hl, #(_turret + 0x0004)
      00022C 36 11                  367 	ld	(hl), #0x11
      00022E 21r70r00               368 	ld	hl, #(_turret + 0x0005)
      000231 36 11                  369 	ld	(hl), #0x11
      000233 21r71r00               370 	ld	hl, #(_turret + 0x0006)
      000236 36 10                  371 	ld	(hl), #0x10
      000238 21r72r00               372 	ld	hl, #(_turret + 0x0007)
      00023B 36 10                  373 	ld	(hl), #0x10
      00023D 21r73r00               374 	ld	hl, #(_turret + 0x0008)
      000240 36 10                  375 	ld	(hl), #0x10
      000242 21r74r00               376 	ld	hl, #(_turret + 0x0009)
      000245 36 00                  377 	ld	(hl), #0x00
      000247 21r75r00               378 	ld	hl, #(_turret + 0x000a)
      00024A 36 01                  379 	ld	(hl), #0x01
      00024C 21r76r00               380 	ld	hl, #(_turret + 0x000b)
      00024F 36 00                  381 	ld	(hl), #0x00
      000251 21r77r00               382 	ld	hl, #(_turret + 0x000c)
      000254 36 00                  383 	ld	(hl), #0x00
      000256 21r78r00               384 	ld	hl, #(_turret + 0x000d)
      000259 36 01                  385 	ld	(hl), #0x01
      00025B 21r79r00               386 	ld	hl, #(_turret + 0x000e)
      00025E 36 01                  387 	ld	(hl), #0x01
      000260 21r7Ar00               388 	ld	hl, #(_turret + 0x000f)
      000263 36 04                  389 	ld	(hl), #0x04
      000265 21r7Br00               390 	ld	hl, #(_turret + 0x0010)
      000268 36 01                  391 	ld	(hl), #0x01
      00026A 21r7Cr00               392 	ld	hl, #(_turret + 0x0011)
      00026D 36 00                  393 	ld	(hl), #0x00
      00026F 21r7Dr00               394 	ld	hl, #(_turret + 0x0012)
      000272 36 00                  395 	ld	(hl), #0x00
      000274 21r7Er00               396 	ld	hl, #(_turret + 0x0013)
      000277 36 31                  397 	ld	(hl), #0x31
      000279 21r7Fr00               398 	ld	hl, #(_turret + 0x0014)
      00027C 36 32                  399 	ld	(hl), #0x32
                                    400 ;src/game.c:51: turret_t turret2 = {
      00027E 21r80r00               401 	ld	hl, #_turret2
      000281 36 C8                  402 	ld	(hl), #0xc8
      000283 21r81r00               403 	ld	hl, #(_turret2 + 0x0001)
      000286 36 C8                  404 	ld	(hl), #0xc8
      000288 21r82r00               405 	ld	hl, #(_turret2 + 0x0002)
      00028B 36 10                  406 	ld	(hl), #0x10
      00028D 21r83r00               407 	ld	hl, #(_turret2 + 0x0003)
      000290 36 11                  408 	ld	(hl), #0x11
      000292 21r84r00               409 	ld	hl, #(_turret2 + 0x0004)
      000295 36 11                  410 	ld	(hl), #0x11
      000297 21r85r00               411 	ld	hl, #(_turret2 + 0x0005)
      00029A 36 11                  412 	ld	(hl), #0x11
      00029C 21r86r00               413 	ld	hl, #(_turret2 + 0x0006)
      00029F 36 10                  414 	ld	(hl), #0x10
      0002A1 21r87r00               415 	ld	hl, #(_turret2 + 0x0007)
      0002A4 36 10                  416 	ld	(hl), #0x10
      0002A6 21r88r00               417 	ld	hl, #(_turret2 + 0x0008)
      0002A9 36 10                  418 	ld	(hl), #0x10
      0002AB 21r89r00               419 	ld	hl, #(_turret2 + 0x0009)
      0002AE 36 00                  420 	ld	(hl), #0x00
      0002B0 21r8Ar00               421 	ld	hl, #(_turret2 + 0x000a)
      0002B3 36 01                  422 	ld	(hl), #0x01
      0002B5 21r8Br00               423 	ld	hl, #(_turret2 + 0x000b)
      0002B8 36 00                  424 	ld	(hl), #0x00
      0002BA 21r8Cr00               425 	ld	hl, #(_turret2 + 0x000c)
      0002BD 36 00                  426 	ld	(hl), #0x00
      0002BF 21r8Dr00               427 	ld	hl, #(_turret2 + 0x000d)
      0002C2 36 01                  428 	ld	(hl), #0x01
      0002C4 21r8Er00               429 	ld	hl, #(_turret2 + 0x000e)
      0002C7 36 01                  430 	ld	(hl), #0x01
      0002C9 21r8Fr00               431 	ld	hl, #(_turret2 + 0x000f)
      0002CC 36 04                  432 	ld	(hl), #0x04
      0002CE 21r90r00               433 	ld	hl, #(_turret2 + 0x0010)
      0002D1 36 01                  434 	ld	(hl), #0x01
      0002D3 21r91r00               435 	ld	hl, #(_turret2 + 0x0011)
      0002D6 36 01                  436 	ld	(hl), #0x01
      0002D8 21r92r00               437 	ld	hl, #(_turret2 + 0x0012)
      0002DB 36 00                  438 	ld	(hl), #0x00
      0002DD 21r93r00               439 	ld	hl, #(_turret2 + 0x0013)
      0002E0 36 18                  440 	ld	(hl), #0x18
      0002E2 21r94r00               441 	ld	hl, #(_turret2 + 0x0014)
      0002E5 36 32                  442 	ld	(hl), #0x32
                                    443 ;src/game.c:56: heatball_t heatball = {
      0002E7 21r95r00               444 	ld	hl, #_heatball
      0002EA 36 C8                  445 	ld	(hl), #0xc8
      0002EC 21r96r00               446 	ld	hl, #(_heatball + 0x0001)
      0002EF 36 C8                  447 	ld	(hl), #0xc8
      0002F1 21r97r00               448 	ld	hl, #(_heatball + 0x0002)
      0002F4 36 12                  449 	ld	(hl), #0x12
      0002F6 21r98r00               450 	ld	hl, #(_heatball + 0x0003)
      0002F9 36 13                  451 	ld	(hl), #0x13
      0002FB 21r99r00               452 	ld	hl, #(_heatball + 0x0004)
      0002FE 36 12                  453 	ld	(hl), #0x12
      000300 21r9Ar00               454 	ld	hl, #(_heatball + 0x0005)
      000303 36 13                  455 	ld	(hl), #0x13
      000305 21r9Br00               456 	ld	hl, #(_heatball + 0x0006)
      000308 36 12                  457 	ld	(hl), #0x12
      00030A 21r9Cr00               458 	ld	hl, #(_heatball + 0x0007)
      00030D 36 13                  459 	ld	(hl), #0x13
      00030F 21r9Dr00               460 	ld	hl, #(_heatball + 0x0008)
      000312 36 12                  461 	ld	(hl), #0x12
      000314 21r9Er00               462 	ld	hl, #(_heatball + 0x0009)
      000317 36 00                  463 	ld	(hl), #0x00
      000319 21r9Fr00               464 	ld	hl, #(_heatball + 0x000a)
      00031C 36 02                  465 	ld	(hl), #0x02
      00031E 21rA0r00               466 	ld	hl, #(_heatball + 0x000b)
      000321 36 00                  467 	ld	(hl), #0x00
      000323 21rA1r00               468 	ld	hl, #(_heatball + 0x000c)
      000326 36 00                  469 	ld	(hl), #0x00
      000328 21rA2r00               470 	ld	hl, #(_heatball + 0x000d)
      00032B 36 00                  471 	ld	(hl), #0x00
      00032D 21rA3r00               472 	ld	hl, #(_heatball + 0x000e)
      000330 36 01                  473 	ld	(hl), #0x01
      000332 21rA4r00               474 	ld	hl, #(_heatball + 0x000f)
      000335 36 04                  475 	ld	(hl), #0x04
      000337 21rA5r00               476 	ld	hl, #(_heatball + 0x0010)
      00033A 36 01                  477 	ld	(hl), #0x01
      00033C 21rA6r00               478 	ld	hl, #(_heatball + 0x0011)
      00033F 36 32                  479 	ld	(hl), #0x32
                                    480 ;src/game.c:61: spike_t spike = {
      000341 21rA7r00               481 	ld	hl, #_spike
      000344 36 C8                  482 	ld	(hl), #0xc8
      000346 21rA8r00               483 	ld	hl, #(_spike + 0x0001)
      000349 36 C8                  484 	ld	(hl), #0xc8
      00034B 21rA9r00               485 	ld	hl, #(_spike + 0x0002)
      00034E 36 14                  486 	ld	(hl), #0x14
      000350 21rAAr00               487 	ld	hl, #(_spike + 0x0003)
      000353 36 15                  488 	ld	(hl), #0x15
      000355 21rABr00               489 	ld	hl, #(_spike + 0x0004)
      000358 36 14                  490 	ld	(hl), #0x14
      00035A 21rACr00               491 	ld	hl, #(_spike + 0x0005)
      00035D 36 15                  492 	ld	(hl), #0x15
      00035F 21rADr00               493 	ld	hl, #(_spike + 0x0006)
      000362 36 14                  494 	ld	(hl), #0x14
      000364 21rAEr00               495 	ld	hl, #(_spike + 0x0007)
      000367 36 15                  496 	ld	(hl), #0x15
      000369 21rAFr00               497 	ld	hl, #(_spike + 0x0008)
      00036C 36 14                  498 	ld	(hl), #0x14
      00036E 21rB0r00               499 	ld	hl, #(_spike + 0x0009)
      000371 36 00                  500 	ld	(hl), #0x00
      000373 21rB1r00               501 	ld	hl, #(_spike + 0x000a)
      000376 36 02                  502 	ld	(hl), #0x02
      000378 21rB2r00               503 	ld	hl, #(_spike + 0x000b)
      00037B 36 00                  504 	ld	(hl), #0x00
      00037D 21rB3r00               505 	ld	hl, #(_spike + 0x000c)
      000380 36 00                  506 	ld	(hl), #0x00
      000382 21rB4r00               507 	ld	hl, #(_spike + 0x000d)
      000385 36 00                  508 	ld	(hl), #0x00
      000387 21rB5r00               509 	ld	hl, #(_spike + 0x000e)
      00038A 36 01                  510 	ld	(hl), #0x01
      00038C 21rB6r00               511 	ld	hl, #(_spike + 0x000f)
      00038F 36 04                  512 	ld	(hl), #0x04
      000391 21rB7r00               513 	ld	hl, #(_spike + 0x0010)
      000394 36 01                  514 	ld	(hl), #0x01
      000396 21rB8r00               515 	ld	hl, #(_spike + 0x0011)
      000399 36 32                  516 	ld	(hl), #0x32
                                    517 ;src/game.c:66: item_t item = {{200, 200}, i_disabled, S_NOTHING};
      00039B 21rB9r00               518 	ld	hl, #_item
      00039E 36 C8                  519 	ld	(hl), #0xc8
      0003A0 21rBAr00               520 	ld	hl, #(_item + 0x0001)
      0003A3 36 C8                  521 	ld	(hl), #0xc8
      0003A5 21rBBr00               522 	ld	hl, #(_item + 0x0002)
      0003A8 36 00                  523 	ld	(hl), #0x00
      0003AA 21rBCr00               524 	ld	hl, #(_item + 0x0003)
      0003AD 36 1F                  525 	ld	(hl), #0x1f
                                    526 ;src/game.c:69: UINT8 beam_count = 0, global_beam_spd = 4, b=0, _b=0, rand_seed_factor, rand_beam_x;
      0003AF 21rC9r00               527 	ld	hl, #_beam_count
      0003B2 36 00                  528 	ld	(hl), #0x00
                                    529 ;src/game.c:69: beam_t beams[7];
      0003B4 21rCAr00               530 	ld	hl, #_global_beam_spd
      0003B7 36 04                  531 	ld	(hl), #0x04
                                    532 ;src/game.c:69: UINT8 beam_count = 0, global_beam_spd = 4, b=0, _b=0, rand_seed_factor, rand_beam_x;
      0003B9 21rCBr00               533 	ld	hl, #_b
      0003BC 36 00                  534 	ld	(hl), #0x00
                                    535 ;src/game.c:69: beam_t beams[7];
      0003BE 21rCCr00               536 	ld	hl, #__b
      0003C1 36 00                  537 	ld	(hl), #0x00
                                    538 ;src/game.c:190: BOOL already_used = false;
      0003C3 21rEBr00               539 	ld	hl, #_already_used
      0003C6 36 00                  540 	ld	(hl), #0x00
                                    541 ;--------------------------------------------------------
                                    542 ; Home
                                    543 ;--------------------------------------------------------
                                    544 	.area _HOME
                                    545 	.area _HOME
                                    546 ;--------------------------------------------------------
                                    547 ; code
                                    548 ;--------------------------------------------------------
                                    549 	.area _CODE
                                    550 ;src/game.c:71: void game_start() {
                                    551 ;	---------------------------------
                                    552 ; Function game_start
                                    553 ; ---------------------------------
      000000                        554 _game_start::
                                    555 ;src/game.c:73: NR52_REG = 0x80;
      000000 3E 80                  556 	ld	a, #0x80
      000002 E0r00                  557 	ldh	(_NR52_REG+0),a
                                    558 ;src/game.c:74: NR50_REG = 0x50;
      000004 3E 50                  559 	ld	a, #0x50
      000006 E0r00                  560 	ldh	(_NR50_REG+0),a
                                    561 ;src/game.c:75: NR51_REG = 0xFF;
      000008 3E FF                  562 	ld	a, #0xff
      00000A E0r00                  563 	ldh	(_NR51_REG+0),a
                                    564 ;src/game.c:78: set_sprite_data(0, 30, sprites);
      00000C 21r00r00               565 	ld	hl, #_sprites
      00000F E5                     566 	push	hl
      000010 3E 1E                  567 	ld	a, #0x1e
      000012 F5                     568 	push	af
      000013 33                     569 	inc	sp
      000014 AF                     570 	xor	a, a
      000015 F5                     571 	push	af
      000016 33                     572 	inc	sp
      000017 CDr00r00               573 	call	_set_sprite_data
      00001A E8 04                  574 	add	sp, #4
                                    575 ;src/game.c:79: player_spawn(&player);
      00001C 21r02r00               576 	ld	hl, #_player
      00001F E5                     577 	push	hl
      000020 CDr00r00               578 	call	_player_spawn
      000023 E8 02                  579 	add	sp, #2
                                    580 ;src/game.c:82: coin_spawn(&coin, &player.pos);
      000025 21r02r00               581 	ld	hl, #_player
      000028 E5                     582 	push	hl
      000029 21r19r00               583 	ld	hl, #_coin
      00002C E5                     584 	push	hl
      00002D CDr00r00               585 	call	_coin_spawn
      000030 E8 04                  586 	add	sp, #4
                                    587 ;src/game.c:85: hud_start(player.score, player.ammo, player.lives);
      000032 21r13r00               588 	ld	hl, #(_player + 0x0011)
      000035 4E                     589 	ld	c, (hl)
      000036 21r15r00               590 	ld	hl, #(_player + 0x0013)
      000039 46                     591 	ld	b, (hl)
      00003A 11r14r00               592 	ld	de, #_player + 18
      00003D 1A                     593 	ld	a, (de)
      00003E 61                     594 	ld	h, c
      00003F 68                     595 	ld	l, b
      000040 E5                     596 	push	hl
      000041 F5                     597 	push	af
      000042 33                     598 	inc	sp
      000043 CDr00r00               599 	call	_hud_start
      000046 E8 03                  600 	add	sp, #3
                                    601 ;src/game.c:88: player_bullet.disabled = true;
      000048 21rC2r00               602 	ld	hl, #(_player_bullet + 0x0005)
      00004B 36 01                  603 	ld	(hl), #0x01
                                    604 ;src/game.c:91: game_new_beam();
      00004D CDr16r03               605 	call	_game_new_beam
                                    606 ;src/game.c:94: game_next_enemy();
      000050 CDr0Ar02               607 	call	_game_next_enemy
                                    608 ;src/game.c:97: set_bkg_data(44, 70, tiles);
      000053 21r00r00               609 	ld	hl, #_tiles
      000056 E5                     610 	push	hl
      000057 11 2C 46               611 	ld	de, #0x462c
      00005A D5                     612 	push	de
      00005B CDr00r00               613 	call	_set_bkg_data
      00005E E8 04                  614 	add	sp, #4
                                    615 ;src/game.c:98: set_bkg_tiles(0, 1, 20, 17, level);
      000060 21r00r00               616 	ld	hl, #_level
      000063 E5                     617 	push	hl
      000064 11 14 11               618 	ld	de, #0x1114
      000067 D5                     619 	push	de
      000068 3E 01                  620 	ld	a, #0x01
      00006A F5                     621 	push	af
      00006B 33                     622 	inc	sp
      00006C AF                     623 	xor	a, a
      00006D F5                     624 	push	af
      00006E 33                     625 	inc	sp
      00006F CDr00r00               626 	call	_set_bkg_tiles
      000072 E8 06                  627 	add	sp, #6
                                    628 ;src/game.c:100: SHOW_SPRITES;
      000074 F0r00                  629 	ldh	a, (_LCDC_REG+0)
      000076 F6 02                  630 	or	a, #0x02
      000078 E0r00                  631 	ldh	(_LCDC_REG+0),a
                                    632 ;src/game.c:101: SHOW_BKG;
      00007A F0r00                  633 	ldh	a, (_LCDC_REG+0)
      00007C F6 01                  634 	or	a, #0x01
      00007E E0r00                  635 	ldh	(_LCDC_REG+0),a
                                    636 ;src/game.c:102: }
      000080 C9                     637 	ret
      000081                        638 _fps:
      000081 3C                     639 	.db #0x3c	; 60
                                    640 ;src/game.c:105: void game_input() {
                                    641 ;	---------------------------------
                                    642 ; Function game_input
                                    643 ; ---------------------------------
      000082                        644 _game_input::
                                    645 ;src/game.c:106: player_input(&player, &player_bullet);
      000082 21rBDr00               646 	ld	hl, #_player_bullet
      000085 E5                     647 	push	hl
      000086 21r02r00               648 	ld	hl, #_player
      000089 E5                     649 	push	hl
      00008A CDr00r00               650 	call	_player_input
      00008D E8 04                  651 	add	sp, #4
                                    652 ;src/game.c:107: }
      00008F C9                     653 	ret
                                    654 ;src/game.c:110: void game_update() {
                                    655 ;	---------------------------------
                                    656 ; Function game_update
                                    657 ; ---------------------------------
      000090                        658 _game_update::
                                    659 ;src/game.c:114: &heatball, &spike);
                                    660 ;src/game.c:113: &skullperior, &enemy_bullet, &turret, &turret2,
                                    661 ;src/game.c:112: &item, &drone, &splitter, &skulltron,
                                    662 ;src/game.c:111: player_update(&player, &coin, &player_bullet, beam_count,
      000090 21rA7r00               663 	ld	hl, #_spike
      000093 E5                     664 	push	hl
      000094 21r95r00               665 	ld	hl, #_heatball
      000097 E5                     666 	push	hl
      000098 21r80r00               667 	ld	hl, #_turret2
      00009B E5                     668 	push	hl
      00009C 21r6Br00               669 	ld	hl, #_turret
      00009F E5                     670 	push	hl
      0000A0 21rC3r00               671 	ld	hl, #_enemy_bullet
      0000A3 E5                     672 	push	hl
      0000A4 21r55r00               673 	ld	hl, #_skullperior
      0000A7 E5                     674 	push	hl
      0000A8 21r3Fr00               675 	ld	hl, #_skulltron
      0000AB E5                     676 	push	hl
      0000AC 21r2Dr00               677 	ld	hl, #_splitter
      0000AF E5                     678 	push	hl
      0000B0 21r1Br00               679 	ld	hl, #_drone
      0000B3 E5                     680 	push	hl
      0000B4 21rB9r00               681 	ld	hl, #_item
      0000B7 E5                     682 	push	hl
      0000B8 FArC9r00               683 	ld	a, (#_beam_count)
      0000BB F5                     684 	push	af
      0000BC 33                     685 	inc	sp
      0000BD 21rBDr00               686 	ld	hl, #_player_bullet
      0000C0 E5                     687 	push	hl
      0000C1 21r19r00               688 	ld	hl, #_coin
      0000C4 E5                     689 	push	hl
      0000C5 21r02r00               690 	ld	hl, #_player
      0000C8 E5                     691 	push	hl
      0000C9 CDr00r00               692 	call	_player_update
      0000CC E8 1B                  693 	add	sp, #27
                                    694 ;src/game.c:116: if (!player_bullet.disabled)
      0000CE FArC2r00               695 	ld	a, (#(_player_bullet + 0x0005) + 0)
      0000D1 B7                     696 	or	a, a
      0000D2 20 09                  697 	jr	NZ, 00102$
                                    698 ;src/game.c:117: bullet_update(&player_bullet);
      0000D4 21rBDr00               699 	ld	hl, #_player_bullet
      0000D7 E5                     700 	push	hl
      0000D8 CDr00r00               701 	call	_bullet_update
      0000DB E8 02                  702 	add	sp, #2
      0000DD                        703 00102$:
                                    704 ;src/game.c:118: if (!enemy_bullet.disabled)
      0000DD FArC8r00               705 	ld	a, (#(_enemy_bullet + 0x0005) + 0)
      0000E0 B7                     706 	or	a, a
      0000E1 20 09                  707 	jr	NZ, 00104$
                                    708 ;src/game.c:119: bullet_update(&enemy_bullet);
      0000E3 21rC3r00               709 	ld	hl, #_enemy_bullet
      0000E6 E5                     710 	push	hl
      0000E7 CDr00r00               711 	call	_bullet_update
      0000EA E8 02                  712 	add	sp, #2
      0000EC                        713 00104$:
                                    714 ;src/game.c:121: if (drone.pos.x != 200) drone_update(&drone, &coin, &player_bullet);
      0000EC FAr1Br00               715 	ld	a, (#_drone + 0)
      0000EF D6 C8                  716 	sub	a, #0xc8
      0000F1 28 11                  717 	jr	Z, 00106$
      0000F3 21rBDr00               718 	ld	hl, #_player_bullet
      0000F6 E5                     719 	push	hl
      0000F7 21r19r00               720 	ld	hl, #_coin
      0000FA E5                     721 	push	hl
      0000FB 21r1Br00               722 	ld	hl, #_drone
      0000FE E5                     723 	push	hl
      0000FF CDr00r00               724 	call	_drone_update
      000102 E8 06                  725 	add	sp, #6
      000104                        726 00106$:
                                    727 ;src/game.c:122: if (splitter.pos.x != 200) splitter_update(&splitter, &coin, &player_bullet);
      000104 FAr2Dr00               728 	ld	a, (#_splitter + 0)
      000107 D6 C8                  729 	sub	a, #0xc8
      000109 28 11                  730 	jr	Z, 00108$
      00010B 21rBDr00               731 	ld	hl, #_player_bullet
      00010E E5                     732 	push	hl
      00010F 21r19r00               733 	ld	hl, #_coin
      000112 E5                     734 	push	hl
      000113 21r2Dr00               735 	ld	hl, #_splitter
      000116 E5                     736 	push	hl
      000117 CDr00r00               737 	call	_splitter_update
      00011A E8 06                  738 	add	sp, #6
      00011C                        739 00108$:
                                    740 ;src/game.c:123: if (skulltron.pos.x != 200) skulltron_update(&skulltron, &player_bullet, &player.pos, &enemy_bullet);
      00011C FAr3Fr00               741 	ld	a, (#_skulltron + 0)
      00011F D6 C8                  742 	sub	a, #0xc8
      000121 28 15                  743 	jr	Z, 00110$
      000123 21rC3r00               744 	ld	hl, #_enemy_bullet
      000126 E5                     745 	push	hl
      000127 21r02r00               746 	ld	hl, #_player
      00012A E5                     747 	push	hl
      00012B 21rBDr00               748 	ld	hl, #_player_bullet
      00012E E5                     749 	push	hl
      00012F 21r3Fr00               750 	ld	hl, #_skulltron
      000132 E5                     751 	push	hl
      000133 CDr00r00               752 	call	_skulltron_update
      000136 E8 08                  753 	add	sp, #8
      000138                        754 00110$:
                                    755 ;src/game.c:124: if (skullperior.pos.x != 200) skulltron_update(&skullperior, &player_bullet, &player.pos, &enemy_bullet);
      000138 FAr55r00               756 	ld	a, (#_skullperior + 0)
      00013B D6 C8                  757 	sub	a, #0xc8
      00013D 28 15                  758 	jr	Z, 00112$
      00013F 21rC3r00               759 	ld	hl, #_enemy_bullet
      000142 E5                     760 	push	hl
      000143 21r02r00               761 	ld	hl, #_player
      000146 E5                     762 	push	hl
      000147 21rBDr00               763 	ld	hl, #_player_bullet
      00014A E5                     764 	push	hl
      00014B 21r55r00               765 	ld	hl, #_skullperior
      00014E E5                     766 	push	hl
      00014F CDr00r00               767 	call	_skulltron_update
      000152 E8 08                  768 	add	sp, #8
      000154                        769 00112$:
                                    770 ;src/game.c:125: if (turret.pos.x != 200) turret_update(&turret, &player_bullet, &player.pos, &enemy_bullet);
      000154 FAr6Br00               771 	ld	a, (#_turret + 0)
      000157 D6 C8                  772 	sub	a, #0xc8
      000159 28 15                  773 	jr	Z, 00114$
      00015B 21rC3r00               774 	ld	hl, #_enemy_bullet
      00015E E5                     775 	push	hl
      00015F 21r02r00               776 	ld	hl, #_player
      000162 E5                     777 	push	hl
      000163 21rBDr00               778 	ld	hl, #_player_bullet
      000166 E5                     779 	push	hl
      000167 21r6Br00               780 	ld	hl, #_turret
      00016A E5                     781 	push	hl
      00016B CDr00r00               782 	call	_turret_update
      00016E E8 08                  783 	add	sp, #8
      000170                        784 00114$:
                                    785 ;src/game.c:126: if (turret2.pos.x != 200) turret_update(&turret2, &player_bullet, &player.pos, &enemy_bullet);
      000170 FAr80r00               786 	ld	a, (#_turret2 + 0)
      000173 D6 C8                  787 	sub	a, #0xc8
      000175 28 15                  788 	jr	Z, 00116$
      000177 21rC3r00               789 	ld	hl, #_enemy_bullet
      00017A E5                     790 	push	hl
      00017B 21r02r00               791 	ld	hl, #_player
      00017E E5                     792 	push	hl
      00017F 21rBDr00               793 	ld	hl, #_player_bullet
      000182 E5                     794 	push	hl
      000183 21r80r00               795 	ld	hl, #_turret2
      000186 E5                     796 	push	hl
      000187 CDr00r00               797 	call	_turret_update
      00018A E8 08                  798 	add	sp, #8
      00018C                        799 00116$:
                                    800 ;src/game.c:127: if (heatball.pos.x != 200) heatball_update(&heatball);
      00018C FAr95r00               801 	ld	a, (#_heatball + 0)
      00018F D6 C8                  802 	sub	a, #0xc8
      000191 28 09                  803 	jr	Z, 00118$
      000193 21r95r00               804 	ld	hl, #_heatball
      000196 E5                     805 	push	hl
      000197 CDr00r00               806 	call	_heatball_update
      00019A E8 02                  807 	add	sp, #2
      00019C                        808 00118$:
                                    809 ;src/game.c:128: if (spike.pos.x != 200) spike_update(&spike, &player_bullet);
      00019C FArA7r00               810 	ld	a, (#_spike + 0)
      00019F D6 C8                  811 	sub	a, #0xc8
      0001A1 28 0D                  812 	jr	Z, 00120$
      0001A3 21rBDr00               813 	ld	hl, #_player_bullet
      0001A6 E5                     814 	push	hl
      0001A7 21rA7r00               815 	ld	hl, #_spike
      0001AA E5                     816 	push	hl
      0001AB CDr00r00               817 	call	_spike_update
      0001AE E8 04                  818 	add	sp, #4
      0001B0                        819 00120$:
                                    820 ;src/game.c:129: if (item.type != i_disabled) item_update(&item);
      0001B0 FArBBr00               821 	ld	a, (#(_item + 0x0002) + 0)
      0001B3 B7                     822 	or	a, a
      0001B4 28 09                  823 	jr	Z, 00122$
      0001B6 21rB9r00               824 	ld	hl, #_item
      0001B9 E5                     825 	push	hl
      0001BA CDr00r00               826 	call	_item_update
      0001BD E8 02                  827 	add	sp, #2
      0001BF                        828 00122$:
                                    829 ;src/game.c:130: for (b=0; b < beam_count; b++)
      0001BF 21rCBr00               830 	ld	hl, #_b
      0001C2 36 00                  831 	ld	(hl), #0x00
      0001C4                        832 00125$:
      0001C4 FArCBr00               833 	ld	a, (#_b)
      0001C7 21rC9r00               834 	ld	hl, #_beam_count
      0001CA 96                     835 	sub	a, (hl)
      0001CB D0                     836 	ret	NC
                                    837 ;src/game.c:131: beam_update(&beams[b], &player, &drone, &splitter, &skulltron, &skullperior, &turret, &turret2, &heatball, &spike);
      0001CC 01r02r00               838 	ld	bc, #_player
      0001CF 21rCBr00               839 	ld	hl, #_b
      0001D2 5E                     840 	ld	e, (hl)
      0001D3 16 00                  841 	ld	d, #0x00
      0001D5 6B                     842 	ld	l, e
      0001D6 62                     843 	ld	h, d
      0001D7 29                     844 	add	hl, hl
      0001D8 29                     845 	add	hl, hl
      0001D9 11rCFr00               846 	ld	de, #_beams
      0001DC 19                     847 	add	hl, de
      0001DD 11rA7r00               848 	ld	de, #_spike
      0001E0 D5                     849 	push	de
      0001E1 11r95r00               850 	ld	de, #_heatball
      0001E4 D5                     851 	push	de
      0001E5 11r80r00               852 	ld	de, #_turret2
      0001E8 D5                     853 	push	de
      0001E9 11r6Br00               854 	ld	de, #_turret
      0001EC D5                     855 	push	de
      0001ED 11r55r00               856 	ld	de, #_skullperior
      0001F0 D5                     857 	push	de
      0001F1 11r3Fr00               858 	ld	de, #_skulltron
      0001F4 D5                     859 	push	de
      0001F5 11r2Dr00               860 	ld	de, #_splitter
      0001F8 D5                     861 	push	de
      0001F9 11r1Br00               862 	ld	de, #_drone
      0001FC D5                     863 	push	de
      0001FD C5                     864 	push	bc
      0001FE E5                     865 	push	hl
      0001FF CDr00r00               866 	call	_beam_update
      000202 E8 14                  867 	add	sp, #20
                                    868 ;src/game.c:130: for (b=0; b < beam_count; b++)
      000204 21rCBr00               869 	ld	hl, #_b
      000207 34                     870 	inc	(hl)
                                    871 ;src/game.c:132: }
      000208 18 BA                  872 	jr	00125$
                                    873 ;src/game.c:139: void game_next_enemy() {
                                    874 ;	---------------------------------
                                    875 ; Function game_next_enemy
                                    876 ; ---------------------------------
      00020A                        877 _game_next_enemy::
                                    878 ;src/game.c:140: switch(last_enemy) {
      00020A 3E 07                  879 	ld	a, #0x07
      00020C 21r01r00               880 	ld	hl, #_last_enemy
      00020F 96                     881 	sub	a, (hl)
      000210 D8                     882 	ret	C
      000211 4E                     883 	ld	c, (hl)
      000212 06 00                  884 	ld	b, #0x00
      000214 21r1Br02               885 	ld	hl, #00133$
      000217 09                     886 	add	hl, bc
      000218 09                     887 	add	hl, bc
      000219 09                     888 	add	hl, bc
      00021A E9                     889 	jp	(hl)
      00021B                        890 00133$:
      00021B C3r46r02               891 	jp	00103$
      00021E C3r7Fr02               892 	jp	00106$
      000221 C3r59r02               893 	jp	00104$
      000224 C3rAEr02               894 	jp	00110$
      000227 C3r6Cr02               895 	jp	00105$
      00022A C3rC1r02               896 	jp	00111$
      00022D C3r33r02               897 	jp	00102$
      000230 C3r33r02               898 	jp	00102$
                                    899 ;src/game.c:142: case E_HEATBALL_SPIKE:
      000233                        900 00102$:
                                    901 ;src/game.c:143: drone_spawn(&drone, &coin);
      000233 21r19r00               902 	ld	hl, #_coin
      000236 E5                     903 	push	hl
      000237 21r1Br00               904 	ld	hl, #_drone
      00023A E5                     905 	push	hl
      00023B CDr00r00               906 	call	_drone_spawn
      00023E E8 04                  907 	add	sp, #4
                                    908 ;src/game.c:144: last_enemy = E_DRONE;
      000240 21r01r00               909 	ld	hl, #_last_enemy
      000243 36 00                  910 	ld	(hl), #0x00
                                    911 ;src/game.c:145: break;
      000245 C9                     912 	ret
                                    913 ;src/game.c:146: case E_DRONE:
      000246                        914 00103$:
                                    915 ;src/game.c:147: turret_spawn(&turret, &coin);
      000246 21r19r00               916 	ld	hl, #_coin
      000249 E5                     917 	push	hl
      00024A 21r6Br00               918 	ld	hl, #_turret
      00024D E5                     919 	push	hl
      00024E CDr00r00               920 	call	_turret_spawn
      000251 E8 04                  921 	add	sp, #4
                                    922 ;src/game.c:148: last_enemy = E_TURRET;
      000253 21r01r00               923 	ld	hl, #_last_enemy
      000256 36 02                  924 	ld	(hl), #0x02
                                    925 ;src/game.c:149: break;
      000258 C9                     926 	ret
                                    927 ;src/game.c:150: case E_TURRET:
      000259                        928 00104$:
                                    929 ;src/game.c:151: skulltron_spawn(&skulltron, &coin);
      000259 21r19r00               930 	ld	hl, #_coin
      00025C E5                     931 	push	hl
      00025D 21r3Fr00               932 	ld	hl, #_skulltron
      000260 E5                     933 	push	hl
      000261 CDr00r00               934 	call	_skulltron_spawn
      000264 E8 04                  935 	add	sp, #4
                                    936 ;src/game.c:152: last_enemy = E_SKULLTRON;
      000266 21r01r00               937 	ld	hl, #_last_enemy
      000269 36 04                  938 	ld	(hl), #0x04
                                    939 ;src/game.c:153: break;
      00026B C9                     940 	ret
                                    941 ;src/game.c:154: case E_SKULLTRON:
      00026C                        942 00105$:
                                    943 ;src/game.c:155: splitter_spawn(&splitter, &coin);
      00026C 21r19r00               944 	ld	hl, #_coin
      00026F E5                     945 	push	hl
      000270 21r2Dr00               946 	ld	hl, #_splitter
      000273 E5                     947 	push	hl
      000274 CDr00r00               948 	call	_splitter_spawn
      000277 E8 04                  949 	add	sp, #4
                                    950 ;src/game.c:156: last_enemy = E_SPLITTER;
      000279 21r01r00               951 	ld	hl, #_last_enemy
      00027C 36 01                  952 	ld	(hl), #0x01
                                    953 ;src/game.c:157: break;
      00027E C9                     954 	ret
                                    955 ;src/game.c:158: case E_SPLITTER:
      00027F                        956 00106$:
                                    957 ;src/game.c:159: if (player.score > 10) {
      00027F 21r14r00               958 	ld	hl, #(_player + 0x0012)
      000282 4E                     959 	ld	c, (hl)
      000283 3E 0A                  960 	ld	a, #0x0a
      000285 91                     961 	sub	a, c
      000286 30 13                  962 	jr	NC, 00108$
                                    963 ;src/game.c:160: turret_spawn(&turret2, &coin);
      000288 21r19r00               964 	ld	hl, #_coin
      00028B E5                     965 	push	hl
      00028C 21r80r00               966 	ld	hl, #_turret2
      00028F E5                     967 	push	hl
      000290 CDr00r00               968 	call	_turret_spawn
      000293 E8 04                  969 	add	sp, #4
                                    970 ;src/game.c:161: last_enemy = E_TURRET2;
      000295 21r01r00               971 	ld	hl, #_last_enemy
      000298 36 03                  972 	ld	(hl), #0x03
      00029A C9                     973 	ret
      00029B                        974 00108$:
                                    975 ;src/game.c:163: heatball_spawn(&heatball, &coin);
      00029B 21r19r00               976 	ld	hl, #_coin
      00029E E5                     977 	push	hl
      00029F 21r95r00               978 	ld	hl, #_heatball
      0002A2 E5                     979 	push	hl
      0002A3 CDr00r00               980 	call	_heatball_spawn
      0002A6 E8 04                  981 	add	sp, #4
                                    982 ;src/game.c:164: last_enemy = E_HEATBALL;
      0002A8 21r01r00               983 	ld	hl, #_last_enemy
      0002AB 36 06                  984 	ld	(hl), #0x06
                                    985 ;src/game.c:166: break;
      0002AD C9                     986 	ret
                                    987 ;src/game.c:167: case E_TURRET2:
      0002AE                        988 00110$:
                                    989 ;src/game.c:168: skulltron_spawn(&skullperior, &coin);
      0002AE 21r19r00               990 	ld	hl, #_coin
      0002B1 E5                     991 	push	hl
      0002B2 21r55r00               992 	ld	hl, #_skullperior
      0002B5 E5                     993 	push	hl
      0002B6 CDr00r00               994 	call	_skulltron_spawn
      0002B9 E8 04                  995 	add	sp, #4
                                    996 ;src/game.c:169: last_enemy = E_SKULLPERIOR;
      0002BB 21r01r00               997 	ld	hl, #_last_enemy
      0002BE 36 05                  998 	ld	(hl), #0x05
                                    999 ;src/game.c:170: break;
      0002C0 C9                    1000 	ret
                                   1001 ;src/game.c:171: case E_SKULLPERIOR:
      0002C1                       1002 00111$:
                                   1003 ;src/game.c:172: if (player.score < 120) {
      0002C1 FAr14r00              1004 	ld	a, (#(_player + 0x0012) + 0)
      0002C4 D6 78                 1005 	sub	a, #0x78
      0002C6 30 20                 1006 	jr	NC, 00113$
                                   1007 ;src/game.c:173: heatball_spawn(&heatball, &coin);
      0002C8 21r19r00              1008 	ld	hl, #_coin
      0002CB E5                    1009 	push	hl
      0002CC 21r95r00              1010 	ld	hl, #_heatball
      0002CF E5                    1011 	push	hl
      0002D0 CDr00r00              1012 	call	_heatball_spawn
      0002D3 E8 04                 1013 	add	sp, #4
                                   1014 ;src/game.c:174: spike_spawn(&spike, &coin);
      0002D5 21r19r00              1015 	ld	hl, #_coin
      0002D8 E5                    1016 	push	hl
      0002D9 21rA7r00              1017 	ld	hl, #_spike
      0002DC E5                    1018 	push	hl
      0002DD CDr00r00              1019 	call	_spike_spawn
      0002E0 E8 04                 1020 	add	sp, #4
                                   1021 ;src/game.c:175: last_enemy = E_HEATBALL_SPIKE;
      0002E2 21r01r00              1022 	ld	hl, #_last_enemy
      0002E5 36 07                 1023 	ld	(hl), #0x07
      0002E7 C9                    1024 	ret
      0002E8                       1025 00113$:
                                   1026 ;src/game.c:177: skulltron_spawn(&skullperior, &coin);
      0002E8 21r19r00              1027 	ld	hl, #_coin
      0002EB E5                    1028 	push	hl
      0002EC 21r55r00              1029 	ld	hl, #_skullperior
      0002EF E5                    1030 	push	hl
      0002F0 CDr00r00              1031 	call	_skulltron_spawn
      0002F3 E8 04                 1032 	add	sp, #4
                                   1033 ;src/game.c:178: last_enemy = E_SKULLPERIOR;
      0002F5 21r01r00              1034 	ld	hl, #_last_enemy
      0002F8 36 05                 1035 	ld	(hl), #0x05
                                   1036 ;src/game.c:181: }
                                   1037 ;src/game.c:182: }
      0002FA C9                    1038 	ret
                                   1039 ;src/game.c:185: void game_spawn_item() {
                                   1040 ;	---------------------------------
                                   1041 ; Function game_spawn_item
                                   1042 ; ---------------------------------
      0002FB                       1043 _game_spawn_item::
                                   1044 ;src/game.c:186: if (player.score == 0 || player.score == 1 || is_prime(player.score)) return;
      0002FB FAr14r00              1045 	ld	a, (#(_player + 0x0012) + 0)
      0002FE B7                    1046 	or	a, a
      0002FF C8                    1047 	ret	Z
      000300 FE 01                 1048 	cp	a, #0x01
      000302 C8                    1049 	ret	Z
      000303 F5                    1050 	push	af
      000304 33                    1051 	inc	sp
      000305 CDr00r00              1052 	call	_is_prime
      000308 33                    1053 	inc	sp
      000309 7B                    1054 	ld	a, e
      00030A B7                    1055 	or	a, a
      00030B C0                    1056 	ret	NZ
                                   1057 ;src/game.c:187: item_spawn(&item);
      00030C 21rB9r00              1058 	ld	hl, #_item
      00030F E5                    1059 	push	hl
      000310 CDr00r00              1060 	call	_item_spawn
      000313 E8 02                 1061 	add	sp, #2
                                   1062 ;src/game.c:188: }
      000315 C9                    1063 	ret
                                   1064 ;src/game.c:191: void game_new_beam() {
                                   1065 ;	---------------------------------
                                   1066 ; Function game_new_beam
                                   1067 ; ---------------------------------
      000316                       1068 _game_new_beam::
      000316 E8 FC                 1069 	add	sp, #-4
                                   1070 ;src/game.c:192: rand_seed_factor = (global_frame % 2 != 0 ? 1 : 2);
      000318 21r00r00              1071 	ld	hl, #_global_frame
      00031B CB 46                 1072 	bit	0, (hl)
      00031D 28 05                 1073 	jr	Z, 00115$
      00031F 01 01 00              1074 	ld	bc, #0x0001
      000322 18 03                 1075 	jr	00116$
      000324                       1076 00115$:
      000324 01 02 00              1077 	ld	bc, #0x0002
      000327                       1078 00116$:
      000327 21rCDr00              1079 	ld	hl, #_rand_seed_factor
      00032A 71                    1080 	ld	(hl), c
                                   1081 ;src/game.c:193: seed = DIV_REG;
      00032B F0r00                 1082 	ldh	a, (_DIV_REG+0)
      00032D 21r00r00              1083 	ld	hl, #_seed
      000330 77                    1084 	ld	(hl), a
                                   1085 ;src/game.c:194: seed |= (UINT16)DIV_REG << 8;
      000331 F0r00                 1086 	ldh	a, (_DIV_REG+0)
                                   1087 ;src/game.c:195: initarand(seed + rand_menukey + (rand_menuframe * rand_seed_factor) * (global_frame * rand_seed_factor) * beam_count);
      000333 4E                    1088 	ld	c, (hl)
      000334 06 00                 1089 	ld	b, #0x00
      000336 21r00r00              1090 	ld	hl, #_rand_menukey
      000339 5E                    1091 	ld	e, (hl)
      00033A 16 00                 1092 	ld	d, #0x00
      00033C 6B                    1093 	ld	l, e
      00033D 62                    1094 	ld	h, d
      00033E 09                    1095 	add	hl, bc
      00033F 7D                    1096 	ld	a, l
      000340 54                    1097 	ld	d, h
      000341 F8 02                 1098 	ldhl	sp,	#2
      000343 22                    1099 	ld	(hl+), a
      000344 72                    1100 	ld	(hl), d
      000345 FArCDr00              1101 	ld	a, (#_rand_seed_factor)
      000348 F5                    1102 	push	af
      000349 33                    1103 	inc	sp
      00034A FAr00r00              1104 	ld	a, (#_rand_menuframe)
      00034D F5                    1105 	push	af
      00034E 33                    1106 	inc	sp
      00034F CDr00r00              1107 	call	__muluchar
      000352 E8 02                 1108 	add	sp, #2
      000354 D5                    1109 	push	de
      000355 FArCDr00              1110 	ld	a, (#_rand_seed_factor)
      000358 F5                    1111 	push	af
      000359 33                    1112 	inc	sp
      00035A FAr00r00              1113 	ld	a, (#_global_frame)
      00035D F5                    1114 	push	af
      00035E 33                    1115 	inc	sp
      00035F CDr00r00              1116 	call	__muluchar
      000362 E8 02                 1117 	add	sp, #2
      000364 C1                    1118 	pop	bc
      000365 D5                    1119 	push	de
      000366 C5                    1120 	push	bc
      000367 CDr00r00              1121 	call	__mulint
      00036A E8 04                 1122 	add	sp, #4
      00036C 21rC9r00              1123 	ld	hl, #_beam_count
      00036F 4E                    1124 	ld	c, (hl)
      000370 06 00                 1125 	ld	b, #0x00
      000372 C5                    1126 	push	bc
      000373 D5                    1127 	push	de
      000374 CDr00r00              1128 	call	__mulint
      000377 E8 04                 1129 	add	sp, #4
      000379 F8 02                 1130 	ldhl	sp,	#2
      00037B 2A                    1131 	ld	a, (hl+)
      00037C 66                    1132 	ld	h, (hl)
      00037D 6F                    1133 	ld	l, a
      00037E 19                    1134 	add	hl, de
      00037F E5                    1135 	push	hl
      000380 CDr00r00              1136 	call	_initarand
      000383 E8 02                 1137 	add	sp, #2
                                   1138 ;src/game.c:196: do {
      000385                       1139 00107$:
                                   1140 ;src/game.c:197: rand_beam_x = abs(arand());
      000385 CDr00r00              1141 	call	_arand
      000388 7B                    1142 	ld	a, e
      000389 F5                    1143 	push	af
      00038A 33                    1144 	inc	sp
      00038B CDr00r00              1145 	call	_abs
      00038E 33                    1146 	inc	sp
      00038F 21rCEr00              1147 	ld	hl, #_rand_beam_x
      000392 73                    1148 	ld	(hl), e
                                   1149 ;src/game.c:198: for(b=0; b < beam_count; b++)
      000393 21rCBr00              1150 	ld	hl, #_b
      000396 36 00                 1151 	ld	(hl), #0x00
      000398                       1152 00111$:
                                   1153 ;src/game.c:199: already_used = (rand_beam_x >= (beams[b].pos.x - 16) && rand_beam_x <= (beams[b].pos.x + 16) ? true : false);
      000398 FArCEr00              1154 	ld	a, (#_rand_beam_x)
      00039B F8 00                 1155 	ldhl	sp,	#0
      00039D 77                    1156 	ld	(hl), a
      00039E AF                    1157 	xor	a, a
      00039F 23                    1158 	inc	hl
      0003A0 77                    1159 	ld	(hl), a
                                   1160 ;src/game.c:198: for(b=0; b < beam_count; b++)
      0003A1 FArCBr00              1161 	ld	a, (#_b)
      0003A4 21rC9r00              1162 	ld	hl, #_beam_count
      0003A7 96                    1163 	sub	a, (hl)
      0003A8 30 71                 1164 	jr	NC, 00108$
                                   1165 ;src/game.c:199: already_used = (rand_beam_x >= (beams[b].pos.x - 16) && rand_beam_x <= (beams[b].pos.x + 16) ? true : false);
      0003AA 21rCBr00              1166 	ld	hl, #_b
      0003AD 4E                    1167 	ld	c, (hl)
      0003AE 06 00                 1168 	ld	b, #0x00
      0003B0 69                    1169 	ld	l, c
      0003B1 60                    1170 	ld	h, b
      0003B2 29                    1171 	add	hl, hl
      0003B3 29                    1172 	add	hl, hl
      0003B4 11rCFr00              1173 	ld	de, #_beams
      0003B7 19                    1174 	add	hl, de
      0003B8 4E                    1175 	ld	c, (hl)
      0003B9 06 00                 1176 	ld	b, #0x00
      0003BB 11 10 00              1177 	ld	de, #0x0010
      0003BE 79                    1178 	ld	a, c
      0003BF 93                    1179 	sub	a, e
      0003C0 5F                    1180 	ld	e, a
      0003C1 78                    1181 	ld	a, b
      0003C2 9A                    1182 	sbc	a, d
      0003C3 F8 03                 1183 	ldhl	sp,	#3
      0003C5 32                    1184 	ld	(hl-), a
      0003C6 73                    1185 	ld	(hl), e
      0003C7 F8 00                 1186 	ldhl	sp,	#0
      0003C9 5D                    1187 	ld	e, l
      0003CA 54                    1188 	ld	d, h
      0003CB F8 02                 1189 	ldhl	sp,	#2
      0003CD 1A                    1190 	ld	a, (de)
      0003CE 96                    1191 	sub	a, (hl)
      0003CF 23                    1192 	inc	hl
      0003D0 13                    1193 	inc	de
      0003D1 1A                    1194 	ld	a, (de)
      0003D2 9E                    1195 	sbc	a, (hl)
      0003D3 1A                    1196 	ld	a, (de)
      0003D4 57                    1197 	ld	d, a
      0003D5 CB 7E                 1198 	bit	7, (hl)
      0003D7 28 07                 1199 	jr	Z, 00182$
      0003D9 CB 7A                 1200 	bit	7, d
      0003DB 20 08                 1201 	jr	NZ, 00183$
      0003DD BF                    1202 	cp	a, a
      0003DE 18 05                 1203 	jr	00183$
      0003E0                       1204 00182$:
      0003E0 CB 7A                 1205 	bit	7, d
      0003E2 28 01                 1206 	jr	Z, 00183$
      0003E4 37                    1207 	scf
      0003E5                       1208 00183$:
      0003E5 38 26                 1209 	jr	C, 00117$
      0003E7 21 10 00              1210 	ld	hl, #0x0010
      0003EA 09                    1211 	add	hl, bc
      0003EB 4D                    1212 	ld	c, l
      0003EC 44                    1213 	ld	b, h
      0003ED F8 00                 1214 	ldhl	sp,	#0
      0003EF 79                    1215 	ld	a, c
      0003F0 96                    1216 	sub	a, (hl)
      0003F1 23                    1217 	inc	hl
      0003F2 78                    1218 	ld	a, b
      0003F3 9E                    1219 	sbc	a, (hl)
      0003F4 78                    1220 	ld	a, b
      0003F5 57                    1221 	ld	d, a
      0003F6 CB 7E                 1222 	bit	7, (hl)
      0003F8 28 07                 1223 	jr	Z, 00184$
      0003FA CB 7A                 1224 	bit	7, d
      0003FC 20 08                 1225 	jr	NZ, 00185$
      0003FE BF                    1226 	cp	a, a
      0003FF 18 05                 1227 	jr	00185$
      000401                       1228 00184$:
      000401 CB 7A                 1229 	bit	7, d
      000403 28 01                 1230 	jr	Z, 00185$
      000405 37                    1231 	scf
      000406                       1232 00185$:
      000406 38 05                 1233 	jr	C, 00117$
      000408 01 01 00              1234 	ld	bc, #0x0001
      00040B 18 03                 1235 	jr	00118$
      00040D                       1236 00117$:
      00040D 01 00 00              1237 	ld	bc, #0x0000
      000410                       1238 00118$:
      000410 21rEBr00              1239 	ld	hl, #_already_used
      000413 71                    1240 	ld	(hl), c
                                   1241 ;src/game.c:198: for(b=0; b < beam_count; b++)
      000414 21rCBr00              1242 	ld	hl, #_b
      000417 34                    1243 	inc	(hl)
      000418 C3r98r03              1244 	jp	00111$
      00041B                       1245 00108$:
                                   1246 ;src/game.c:200: } while(rand_beam_x < 36 ||
      00041B 21rCEr00              1247 	ld	hl, #_rand_beam_x
      00041E 7E                    1248 	ld	a, (hl)
      00041F D6 24                 1249 	sub	a, #0x24
      000421 DAr85r03              1250 	jp	C, 00107$
                                   1251 ;src/game.c:201: rand_beam_x > (SCREENWIDTH - 40) ||
      000424 3E 78                 1252 	ld	a, #0x78
      000426 96                    1253 	sub	a, (hl)
      000427 DAr85r03              1254 	jp	C, 00107$
                                   1255 ;src/game.c:202: rand_beam_x % 2 != 0 || rand_beam_x == player.pos.x ||
      00042A F8 00                 1256 	ldhl	sp,	#0
      00042C CB 46                 1257 	bit	0, (hl)
      00042E C2r85r03              1258 	jp	NZ,00107$
      000431 21r02r00              1259 	ld	hl, #_player
      000434 4E                    1260 	ld	c, (hl)
      000435 FArCEr00              1261 	ld	a, (#_rand_beam_x)
      000438 91                    1262 	sub	a, c
      000439 CAr85r03              1263 	jp	Z,00107$
                                   1264 ;src/game.c:203: rand_beam_x == player.check_point.x || already_used);
      00043C 21r04r00              1265 	ld	hl, #(_player + 0x0002)
      00043F 4E                    1266 	ld	c, (hl)
      000440 FArCEr00              1267 	ld	a, (#_rand_beam_x)
      000443 91                    1268 	sub	a, c
      000444 CAr85r03              1269 	jp	Z,00107$
      000447 FArEBr00              1270 	ld	a, (#_already_used)
      00044A B7                    1271 	or	a, a
      00044B C2r85r03              1272 	jp	NZ, 00107$
                                   1273 ;src/game.c:206: beams[beam_count].pos.x = rand_beam_x;
      00044E 21rC9r00              1274 	ld	hl, #_beam_count
      000451 4E                    1275 	ld	c, (hl)
      000452 06 00                 1276 	ld	b, #0x00
      000454 69                    1277 	ld	l, c
      000455 60                    1278 	ld	h, b
      000456 29                    1279 	add	hl, hl
      000457 29                    1280 	add	hl, hl
      000458 7D                    1281 	ld	a, l
      000459 C6rCF                 1282 	add	a, #<(_beams)
      00045B 4F                    1283 	ld	c, a
      00045C 7C                    1284 	ld	a, h
      00045D CEs00                 1285 	adc	a, #>(_beams)
      00045F 47                    1286 	ld	b, a
      000460 FArCEr00              1287 	ld	a, (#_rand_beam_x)
      000463 02                    1288 	ld	(bc), a
                                   1289 ;src/game.c:207: beams[beam_count].pos.y = 24;
      000464 21rC9r00              1290 	ld	hl, #_beam_count
      000467 4E                    1291 	ld	c, (hl)
      000468 06 00                 1292 	ld	b, #0x00
      00046A 69                    1293 	ld	l, c
      00046B 60                    1294 	ld	h, b
      00046C 29                    1295 	add	hl, hl
      00046D 29                    1296 	add	hl, hl
      00046E 11rCFr00              1297 	ld	de, #_beams
      000471 19                    1298 	add	hl, de
      000472 23                    1299 	inc	hl
      000473 36 18                 1300 	ld	(hl), #0x18
                                   1301 ;src/game.c:208: beams[beam_count].spd = 1;
      000475 21rC9r00              1302 	ld	hl, #_beam_count
      000478 4E                    1303 	ld	c, (hl)
      000479 06 00                 1304 	ld	b, #0x00
      00047B 69                    1305 	ld	l, c
      00047C 60                    1306 	ld	h, b
      00047D 29                    1307 	add	hl, hl
      00047E 29                    1308 	add	hl, hl
      00047F 11rCFr00              1309 	ld	de, #_beams
      000482 19                    1310 	add	hl, de
      000483 23                    1311 	inc	hl
      000484 23                    1312 	inc	hl
      000485 23                    1313 	inc	hl
      000486 36 01                 1314 	ld	(hl), #0x01
                                   1315 ;src/game.c:209: beams[beam_count].sprite = COPY_BEAM + beam_count;
      000488 21rC9r00              1316 	ld	hl, #_beam_count
      00048B 4E                    1317 	ld	c, (hl)
      00048C 06 00                 1318 	ld	b, #0x00
      00048E 69                    1319 	ld	l, c
      00048F 60                    1320 	ld	h, b
      000490 29                    1321 	add	hl, hl
      000491 29                    1322 	add	hl, hl
      000492 11rCFr00              1323 	ld	de, #_beams
      000495 19                    1324 	add	hl, de
      000496 23                    1325 	inc	hl
      000497 23                    1326 	inc	hl
      000498 4D                    1327 	ld	c, l
      000499 44                    1328 	ld	b, h
      00049A 21rC9r00              1329 	ld	hl, #_beam_count
      00049D 7E                    1330 	ld	a, (hl)
      00049E C6 20                 1331 	add	a, #0x20
      0004A0 02                    1332 	ld	(bc), a
                                   1333 ;src/game.c:210: beam_spawn(&beams[beam_count]);
      0004A1 4E                    1334 	ld	c, (hl)
      0004A2 06 00                 1335 	ld	b, #0x00
      0004A4 69                    1336 	ld	l, c
      0004A5 60                    1337 	ld	h, b
      0004A6 29                    1338 	add	hl, hl
      0004A7 29                    1339 	add	hl, hl
      0004A8 11rCFr00              1340 	ld	de, #_beams
      0004AB 19                    1341 	add	hl, de
      0004AC E5                    1342 	push	hl
      0004AD CDr00r00              1343 	call	_beam_spawn
      0004B0 E8 02                 1344 	add	sp, #2
                                   1345 ;src/game.c:212: beam_count++;
      0004B2 21rC9r00              1346 	ld	hl, #_beam_count
      0004B5 34                    1347 	inc	(hl)
                                   1348 ;src/game.c:213: }
      0004B6 E8 04                 1349 	add	sp, #4
      0004B8 C9                    1350 	ret
                                   1351 ;src/game.c:215: void game_beam_speed_medium() {
                                   1352 ;	---------------------------------
                                   1353 ; Function game_beam_speed_medium
                                   1354 ; ---------------------------------
      0004B9                       1355 _game_beam_speed_medium::
                                   1356 ;src/game.c:216: for(_b=0; _b < beam_count; _b++)
      0004B9 21rCCr00              1357 	ld	hl, #__b
      0004BC 36 00                 1358 	ld	(hl), #0x00
      0004BE 01rCFr00              1359 	ld	bc, #_beams+0
      0004C1                       1360 00103$:
      0004C1 FArCCr00              1361 	ld	a, (#__b)
      0004C4 21rC9r00              1362 	ld	hl, #_beam_count
      0004C7 96                    1363 	sub	a, (hl)
      0004C8 D0                    1364 	ret	NC
                                   1365 ;src/game.c:217: beams[_b].spd = 2;
      0004C9 21rCCr00              1366 	ld	hl, #__b
      0004CC 5E                    1367 	ld	e, (hl)
      0004CD 16 00                 1368 	ld	d, #0x00
      0004CF 6B                    1369 	ld	l, e
      0004D0 62                    1370 	ld	h, d
      0004D1 29                    1371 	add	hl, hl
      0004D2 29                    1372 	add	hl, hl
      0004D3 09                    1373 	add	hl, bc
      0004D4 23                    1374 	inc	hl
      0004D5 23                    1375 	inc	hl
      0004D6 23                    1376 	inc	hl
      0004D7 36 02                 1377 	ld	(hl), #0x02
                                   1378 ;src/game.c:216: for(_b=0; _b < beam_count; _b++)
      0004D9 21rCCr00              1379 	ld	hl, #__b
      0004DC 34                    1380 	inc	(hl)
                                   1381 ;src/game.c:218: }
      0004DD 18 E2                 1382 	jr	00103$
                                   1383 ;src/game.c:220: void game_beam_speed_hard() {
                                   1384 ;	---------------------------------
                                   1385 ; Function game_beam_speed_hard
                                   1386 ; ---------------------------------
      0004DF                       1387 _game_beam_speed_hard::
                                   1388 ;src/game.c:221: for(_b=0; _b < beam_count; _b++)
      0004DF 21rCCr00              1389 	ld	hl, #__b
      0004E2 36 00                 1390 	ld	(hl), #0x00
      0004E4 01rCFr00              1391 	ld	bc, #_beams+0
      0004E7                       1392 00103$:
      0004E7 FArCCr00              1393 	ld	a, (#__b)
      0004EA 21rC9r00              1394 	ld	hl, #_beam_count
      0004ED 96                    1395 	sub	a, (hl)
      0004EE D0                    1396 	ret	NC
                                   1397 ;src/game.c:222: beams[_b].spd = 4;
      0004EF 21rCCr00              1398 	ld	hl, #__b
      0004F2 5E                    1399 	ld	e, (hl)
      0004F3 16 00                 1400 	ld	d, #0x00
      0004F5 6B                    1401 	ld	l, e
      0004F6 62                    1402 	ld	h, d
      0004F7 29                    1403 	add	hl, hl
      0004F8 29                    1404 	add	hl, hl
      0004F9 09                    1405 	add	hl, bc
      0004FA 23                    1406 	inc	hl
      0004FB 23                    1407 	inc	hl
      0004FC 23                    1408 	inc	hl
      0004FD 36 04                 1409 	ld	(hl), #0x04
                                   1410 ;src/game.c:221: for(_b=0; _b < beam_count; _b++)
      0004FF 21rCCr00              1411 	ld	hl, #__b
      000502 34                    1412 	inc	(hl)
                                   1413 ;src/game.c:223: }
      000503 18 E2                 1414 	jr	00103$
                                   1415 	.area _CODE
                                   1416 	.area _CABS (ABS)
