ASxxxx Assembler V02.00 + NoICE + SDCC mods  (GameBoy Z80-like CPU), page 1.
Hexadecimal [24-Bits]

Symbol Table

    .__.$$$.                                                    =  002710 L
    .__.ABS.                                                    =  000000 G
    .__.CPU.                                                    =  000000 L
    .__.H$L.                                                    =  000000 L
    __moduchar                                                     ****** GX
  0 _abs                                                           000000 GR
  0 _absdw                                                         000045 GR
  0 _absw                                                          00000E GR
  0 _is_prime                                                      0000AE GR
  1 _n                                                             000000 GR


ASxxxx Assembler V02.00 + NoICE + SDCC mods  (GameBoy Z80-like CPU), page 2.
Hexadecimal [24-Bits]

Area Table

   0 _CODE                                      size     E6   flags    0
   1 _DATA                                      size      1   flags    0
   2 _DABS                                      size      0   flags    8
   3 _HOME                                      size      0   flags    0
   4 _GSINIT                                    size      5   flags    0
   5 _GSFINAL                                   size      0   flags    0
   6 _CABS                                      size      0   flags    8

