ASxxxx Assembler V02.00 + NoICE + SDCC mods  (GameBoy Z80-like CPU), page 1.
Hexadecimal [24-Bits]

Symbol Table

    .__.$$$.                                                    =  002710 L
    .__.ABS.                                                    =  000000 G
    .__.CPU.                                                    =  000000 L
    .__.H$L.                                                    =  000000 L
    _BGP_REG                                                       ****** GX
    __modsint                                                      ****** GX
    _bullet_destroy                                                ****** GX
    _bullet_spawn                                                  ****** GX
    _coin_destroy                                                  ****** GX
    _drone_kill                                                    ****** GX
  0 _fps                                                           000010 R
    _game_beam_speed_hard                                          ****** GX
    _game_beam_speed_medium                                        ****** GX
    _game_new_beam                                                 ****** GX
    _game_next_enemy                                               ****** GX
    _game_spawn_item                                               ****** GX
    _global_frame                                                  ****** GX
    _heatball_kill                                                 ****** GX
    _hud_redraw                                                    ****** GX
    _item_destroy                                                  ****** GX
    _joypad                                                        ****** GX
  1 _last_enemy                                                    000001 R
  1 _max_frame                                                     000003 GR
  1 _min_frame                                                     000002 GR
  1 _paused                                                        000000 R
  0 _player_check_collisions                                       00067C GR
  0 _player_draw                                                   0014DC GR
  0 _player_input                                                  000011 GR
  0 _player_nextframe                                              00147E GR
  0 _player_set_check_point                                        00145E GR
  0 _player_shoot                                                  00062A GR
  0 _player_spawn                                                  000000 GR
  0 _player_update                                                 00019E GR
    _shadow_OAM                                                    ****** GX
    _skulltron_kill                                                ****** GX
    _spike_kill                                                    ****** GX
    _splitter_kill                                                 ****** GX
  1 _total_frames                                                  000004 GR
    _turret_kill                                                   ****** GX

ASxxxx Assembler V02.00 + NoICE + SDCC mods  (GameBoy Z80-like CPU), page 2.
Hexadecimal [24-Bits]

Area Table

   0 _CODE                                      size   14FF   flags    0
   1 _DATA                                      size      5   flags    0
   2 _DABS                                      size      0   flags    8
   3 _HOME                                      size      0   flags    0
   4 _GSINIT                                    size      A   flags    0
   5 _GSFINAL                                   size      0   flags    0
   6 _CABS                                      size      0   flags    8

