                                      1 ;--------------------------------------------------------
                                      2 ; File Created by SDCC : free open source ANSI-C Compiler
                                      3 ; Version 4.0.3 #11875 (Linux)
                                      4 ;--------------------------------------------------------
                                      5 	.module skulltron
                                      6 	.optsdcc -mgbz80
                                      7 	
                                      8 ;--------------------------------------------------------
                                      9 ; Public variables in this module
                                     10 ;--------------------------------------------------------
                                     11 	.globl _bullet_destroy
                                     12 	.globl _bullet_spawn
                                     13 	.globl _skulltron_spawn
                                     14 	.globl _skulltron_update
                                     15 	.globl _skulltron_shoot
                                     16 	.globl _skulltron_check_collisions
                                     17 	.globl _skulltron_nextframe
                                     18 	.globl _skulltron_kill
                                     19 	.globl _skulltron_draw
                                     20 ;--------------------------------------------------------
                                     21 ; special function registers
                                     22 ;--------------------------------------------------------
                                     23 ;--------------------------------------------------------
                                     24 ; ram data
                                     25 ;--------------------------------------------------------
                                     26 	.area _DATA
      000000                         27 _paused:
      000000                         28 	.ds 1
      000001                         29 _last_enemy:
      000001                         30 	.ds 1
                                     31 ;--------------------------------------------------------
                                     32 ; absolute external ram data
                                     33 ;--------------------------------------------------------
                                     34 	.area _DABS (ABS)
                                     35 ;--------------------------------------------------------
                                     36 ; global & static initialisations
                                     37 ;--------------------------------------------------------
                                     38 	.area _HOME
                                     39 	.area _GSINIT
                                     40 	.area _GSFINAL
                                     41 	.area _GSINIT
                                     42 ;src/game.h:7: static BOOL paused = false;
      000000 21r00r00                43 	ld	hl, #_paused
      000003 36 00                   44 	ld	(hl), #0x00
                                     45 ;src/game.h:11: static enemy_t last_enemy = E_HEATBALL;
      000005 21r01r00                46 	ld	hl, #_last_enemy
      000008 36 06                   47 	ld	(hl), #0x06
                                     48 ;--------------------------------------------------------
                                     49 ; Home
                                     50 ;--------------------------------------------------------
                                     51 	.area _HOME
                                     52 	.area _HOME
                                     53 ;--------------------------------------------------------
                                     54 ; code
                                     55 ;--------------------------------------------------------
                                     56 	.area _CODE
                                     57 ;src/skulltron.c:8: void skulltron_spawn(skulltron_t *skulltron, coin_t *coin) {
                                     58 ;	---------------------------------
                                     59 ; Function skulltron_spawn
                                     60 ; ---------------------------------
      000000                         61 _skulltron_spawn::
      000000 E8 FC                   62 	add	sp, #-4
                                     63 ;src/skulltron.c:9: skulltron->pos.x = (coin->pos.x < (SCREENWIDTH / 2) ? coin->pos.x + 8 : coin->pos.x - 8);
      000002 F8 06                   64 	ldhl	sp,	#6
      000004 2A                      65 	ld	a, (hl+)
      000005 5E                      66 	ld	e, (hl)
      000006 F8 00                   67 	ldhl	sp,	#0
      000008 22                      68 	ld	(hl+), a
      000009 73                      69 	ld	(hl), e
      00000A D1                      70 	pop	de
      00000B D5                      71 	push	de
      00000C F8 08                   72 	ldhl	sp,#8
      00000E 2A                      73 	ld	a, (hl+)
      00000F 4F                      74 	ld	c, a
      000010 46                      75 	ld	b, (hl)
      000011 0A                      76 	ld	a, (bc)
      000012 6F                      77 	ld	l, a
      000013 D6 50                   78 	sub	a, #0x50
      000015 30 05                   79 	jr	NC, 00103$
      000017 7D                      80 	ld	a, l
      000018 C6 08                   81 	add	a, #0x08
      00001A 18 03                   82 	jr	00104$
      00001C                         83 00103$:
      00001C 7D                      84 	ld	a, l
      00001D C6 F8                   85 	add	a, #0xf8
      00001F                         86 00104$:
      00001F 12                      87 	ld	(de), a
                                     88 ;src/skulltron.c:10: skulltron->pos.y = coin->pos.y;
      000020 D1                      89 	pop	de
      000021 D5                      90 	push	de
      000022 13                      91 	inc	de
      000023 03                      92 	inc	bc
      000024 0A                      93 	ld	a, (bc)
      000025 12                      94 	ld	(de), a
                                     95 ;src/skulltron.c:11: skulltron->entity.is_dead = false;
      000026 D1                      96 	pop	de
      000027 D5                      97 	push	de
      000028 21 0E 00                98 	ld	hl, #0x000e
      00002B 19                      99 	add	hl, de
      00002C 7D                     100 	ld	a, l
      00002D 54                     101 	ld	d, h
      00002E F8 02                  102 	ldhl	sp,	#2
      000030 22                     103 	ld	(hl+), a
      000031 72                     104 	ld	(hl), d
      000032 C1                     105 	pop	bc
      000033 E1                     106 	pop	hl
      000034 E5                     107 	push	hl
      000035 C5                     108 	push	bc
      000036 36 00                  109 	ld	(hl), #0x00
                                    110 ;src/skulltron.c:12: skulltron->destroy_timer = 0;
      000038 D1                     111 	pop	de
      000039 D5                     112 	push	de
      00003A 21 14 00               113 	ld	hl, #0x0014
      00003D 19                     114 	add	hl, de
      00003E 7D                     115 	ld	a, l
      00003F 54                     116 	ld	d, h
      000040 F8 02                  117 	ldhl	sp,	#2
      000042 22                     118 	ld	(hl+), a
      000043 72                     119 	ld	(hl), d
      000044 C1                     120 	pop	bc
      000045 E1                     121 	pop	hl
      000046 E5                     122 	push	hl
      000047 C5                     123 	push	bc
      000048 36 00                  124 	ld	(hl), #0x00
                                    125 ;src/skulltron.c:13: }
      00004A E8 04                  126 	add	sp, #4
      00004C C9                     127 	ret
      00004D                        128 _fps:
      00004D 3C                     129 	.db #0x3c	; 60
                                    130 ;src/skulltron.c:15: void skulltron_update(skulltron_t *skulltron, bullet_t *bullet, POINT *player_pos, bullet_t *enemy_bullet) {
                                    131 ;	---------------------------------
                                    132 ; Function skulltron_update
                                    133 ; ---------------------------------
      00004E                        134 _skulltron_update::
      00004E E8 F6                  135 	add	sp, #-10
                                    136 ;src/skulltron.c:16: if (skulltron->entity.is_dead && skulltron->destroy_timer >= 50) return;
      000050 F8 0C                  137 	ldhl	sp,	#12
      000052 2A                     138 	ld	a, (hl+)
      000053 5E                     139 	ld	e, (hl)
      000054 F8 00                  140 	ldhl	sp,	#0
      000056 22                     141 	ld	(hl+), a
      000057 73                     142 	ld	(hl), e
      000058 D1                     143 	pop	de
      000059 D5                     144 	push	de
      00005A 21 0E 00               145 	ld	hl, #0x000e
      00005D 19                     146 	add	hl, de
      00005E 4E                     147 	ld	c, (hl)
      00005F D1                     148 	pop	de
      000060 D5                     149 	push	de
      000061 21 14 00               150 	ld	hl, #0x0014
      000064 19                     151 	add	hl, de
      000065 7D                     152 	ld	a, l
      000066 54                     153 	ld	d, h
      000067 F8 08                  154 	ldhl	sp,	#8
      000069 22                     155 	ld	(hl+), a
      00006A 72                     156 	ld	(hl), d
      00006B 79                     157 	ld	a, c
      00006C B7                     158 	or	a, a
      00006D 28 0A                  159 	jr	Z, 00102$
      00006F 2B                     160 	dec	hl
      000070 2A                     161 	ld	a, (hl+)
      000071 5F                     162 	ld	e, a
      000072 56                     163 	ld	d, (hl)
      000073 1A                     164 	ld	a, (de)
      000074 D6 32                  165 	sub	a, #0x32
      000076 D2r69r02               166 	jp	NC,00140$
      000079                        167 00102$:
                                    168 ;src/skulltron.c:17: if (skulltron->entity.is_dead && skulltron->destroy_timer < 50) {
      000079 79                     169 	ld	a, c
      00007A B7                     170 	or	a, a
      00007B 28 56                  171 	jr	Z, 00109$
      00007D F8 08                  172 	ldhl	sp,#8
      00007F 2A                     173 	ld	a, (hl+)
      000080 5F                     174 	ld	e, a
      000081 56                     175 	ld	d, (hl)
      000082 1A                     176 	ld	a, (de)
      000083 FE 32                  177 	cp	a, #0x32
      000085 30 4C                  178 	jr	NC, 00109$
                                    179 ;src/skulltron.c:18: skulltron->destroy_timer++;
      000087 4F                     180 	ld	c, a
      000088 0C                     181 	inc	c
      000089 2B                     182 	dec	hl
      00008A 2A                     183 	ld	a, (hl+)
      00008B 66                     184 	ld	h, (hl)
      00008C 6F                     185 	ld	l, a
      00008D 71                     186 	ld	(hl), c
                                    187 ;src/skulltron.c:19: if (skulltron->destroy_timer % 10 != 0)
      00008E 06 00                  188 	ld	b, #0x00
      000090 21 0A 00               189 	ld	hl, #0x000a
      000093 E5                     190 	push	hl
      000094 C5                     191 	push	bc
      000095 CDr00r00               192 	call	__modsint
      000098 E8 04                  193 	add	sp, #4
      00009A 4B                     194 	ld	c, e
      00009B 7A                     195 	ld	a, d
      00009C B1                     196 	or	a, c
      00009D 28 17                  197 	jr	Z, 00105$
                                    198 ;src/skulltron.c:20: skulltron->entity.sprite.frame = (skulltron->entity.sprite.frame == S_EXPLO1 ? S_EXPLO2 : S_EXPLO1);
      00009F D1                     199 	pop	de
      0000A0 D5                     200 	push	de
      0000A1 21 08 00               201 	ld	hl, #0x0008
      0000A4 19                     202 	add	hl, de
      0000A5 4D                     203 	ld	c, l
      0000A6 44                     204 	ld	b, h
      0000A7 0A                     205 	ld	a, (bc)
      0000A8 D6 16                  206 	sub	a, #0x16
      0000AA 20 05                  207 	jr	NZ, 00142$
      0000AC 11 17 00               208 	ld	de, #0x0017
      0000AF 18 03                  209 	jr	00143$
      0000B1                        210 00142$:
      0000B1 11 16 00               211 	ld	de, #0x0016
      0000B4                        212 00143$:
      0000B4 7B                     213 	ld	a, e
      0000B5 02                     214 	ld	(bc), a
      0000B6                        215 00105$:
                                    216 ;src/skulltron.c:22: if (skulltron->destroy_timer == 50) skulltron_kill(skulltron);
      0000B6 F8 08                  217 	ldhl	sp,#8
      0000B8 2A                     218 	ld	a, (hl+)
      0000B9 5F                     219 	ld	e, a
      0000BA 56                     220 	ld	d, (hl)
      0000BB 1A                     221 	ld	a, (de)
      0000BC D6 32                  222 	sub	a, #0x32
      0000BE 20 08                  223 	jr	NZ, 00107$
      0000C0 E1                     224 	pop	hl
      0000C1 E5                     225 	push	hl
      0000C2 E5                     226 	push	hl
      0000C3 CDr04r04               227 	call	_skulltron_kill
      0000C6 E8 02                  228 	add	sp, #2
      0000C8                        229 00107$:
                                    230 ;src/skulltron.c:24: skulltron_draw(skulltron);
      0000C8 E1                     231 	pop	hl
      0000C9 E5                     232 	push	hl
      0000CA E5                     233 	push	hl
      0000CB CDr27r04               234 	call	_skulltron_draw
      0000CE E8 02                  235 	add	sp, #2
                                    236 ;src/skulltron.c:25: return;
      0000D0 C3r69r02               237 	jp	00140$
      0000D3                        238 00109$:
                                    239 ;src/skulltron.c:27: if (!skulltron->can_move) return;
      0000D3 D1                     240 	pop	de
      0000D4 D5                     241 	push	de
      0000D5 21 10 00               242 	ld	hl, #0x0010
      0000D8 19                     243 	add	hl, de
      0000D9 4D                     244 	ld	c, l
      0000DA 44                     245 	ld	b, h
      0000DB 0A                     246 	ld	a, (bc)
      0000DC B7                     247 	or	a, a
      0000DD CAr69r02               248 	jp	Z,00140$
                                    249 ;src/skulltron.c:28: skulltron_nextframe(skulltron);
      0000E0 E1                     250 	pop	hl
      0000E1 E5                     251 	push	hl
      0000E2 E5                     252 	push	hl
      0000E3 CDrE4r03               253 	call	_skulltron_nextframe
      0000E6 E8 02                  254 	add	sp, #2
                                    255 ;src/skulltron.c:31: skulltron->status_interval++;
      0000E8 D1                     256 	pop	de
      0000E9 D5                     257 	push	de
      0000EA 21 12 00               258 	ld	hl, #0x0012
      0000ED 19                     259 	add	hl, de
      0000EE 7D                     260 	ld	a, l
      0000EF 54                     261 	ld	d, h
      0000F0 F8 03                  262 	ldhl	sp,	#3
      0000F2 22                     263 	ld	(hl+), a
      0000F3 7A                     264 	ld	a, d
      0000F4 32                     265 	ld	(hl-), a
      0000F5 2A                     266 	ld	a, (hl+)
      0000F6 5F                     267 	ld	e, a
      0000F7 56                     268 	ld	d, (hl)
      0000F8 1A                     269 	ld	a, (de)
      0000F9 4F                     270 	ld	c, a
      0000FA 0C                     271 	inc	c
      0000FB 2B                     272 	dec	hl
      0000FC 2A                     273 	ld	a, (hl+)
      0000FD 66                     274 	ld	h, (hl)
      0000FE 6F                     275 	ld	l, a
      0000FF 71                     276 	ld	(hl), c
                                    277 ;src/skulltron.c:32: if (skulltron->status_interval == skulltron->status_interval_max) {
      000100 D1                     278 	pop	de
      000101 D5                     279 	push	de
      000102 21 13 00               280 	ld	hl, #0x0013
      000105 19                     281 	add	hl, de
      000106 7D                     282 	ld	a, l
      000107 54                     283 	ld	d, h
      000108 F8 05                  284 	ldhl	sp,	#5
      00010A 22                     285 	ld	(hl+), a
      00010B 7A                     286 	ld	a, d
      00010C 32                     287 	ld	(hl-), a
      00010D 2A                     288 	ld	a, (hl+)
      00010E 5F                     289 	ld	e, a
      00010F 56                     290 	ld	d, (hl)
      000110 1A                     291 	ld	a, (de)
      000111 47                     292 	ld	b, a
                                    293 ;src/skulltron.c:34: if (skulltron->move_towards_player)
      000112 D1                     294 	pop	de
      000113 D5                     295 	push	de
      000114 21 11 00               296 	ld	hl, #0x0011
      000117 19                     297 	add	hl, de
      000118 7D                     298 	ld	a, l
      000119 54                     299 	ld	d, h
      00011A F8 07                  300 	ldhl	sp,	#7
      00011C 22                     301 	ld	(hl+), a
      00011D 72                     302 	ld	(hl), d
                                    303 ;src/skulltron.c:32: if (skulltron->status_interval == skulltron->status_interval_max) {
      00011E 79                     304 	ld	a, c
      00011F 90                     305 	sub	a, b
      000120 20 75                  306 	jr	NZ, 00126$
                                    307 ;src/skulltron.c:33: skulltron->status_interval = 0;
      000122 F8 03                  308 	ldhl	sp,	#3
      000124 2A                     309 	ld	a, (hl+)
      000125 66                     310 	ld	h, (hl)
      000126 6F                     311 	ld	l, a
      000127 36 00                  312 	ld	(hl), #0x00
                                    313 ;src/skulltron.c:34: if (skulltron->move_towards_player)
      000129 F8 07                  314 	ldhl	sp,#7
      00012B 2A                     315 	ld	a, (hl+)
      00012C 5F                     316 	ld	e, a
      00012D 56                     317 	ld	d, (hl)
      00012E 1A                     318 	ld	a, (de)
      00012F 23                     319 	inc	hl
      000130 77                     320 	ld	(hl), a
                                    321 ;src/skulltron.c:35: if (skulltron->shoot_when_stop &&  enemy_bullet->disabled) skulltron_shoot(skulltron, enemy_bullet);
      000131 D1                     322 	pop	de
      000132 D5                     323 	push	de
      000133 21 15 00               324 	ld	hl, #0x0015
      000136 19                     325 	add	hl, de
      000137 4D                     326 	ld	c, l
      000138 44                     327 	ld	b, h
                                    328 ;src/skulltron.c:34: if (skulltron->move_towards_player)
      000139 F8 09                  329 	ldhl	sp,	#9
      00013B 7E                     330 	ld	a, (hl)
      00013C B7                     331 	or	a, a
      00013D 28 1F                  332 	jr	Z, 00117$
                                    333 ;src/skulltron.c:35: if (skulltron->shoot_when_stop &&  enemy_bullet->disabled) skulltron_shoot(skulltron, enemy_bullet);
      00013F 0A                     334 	ld	a, (bc)
      000140 B7                     335 	or	a, a
      000141 28 1B                  336 	jr	Z, 00117$
      000143 F8 12                  337 	ldhl	sp,#18
      000145 2A                     338 	ld	a, (hl+)
      000146 5F                     339 	ld	e, a
      000147 56                     340 	ld	d, (hl)
      000148 21 05 00               341 	ld	hl, #0x0005
      00014B 19                     342 	add	hl, de
      00014C 7E                     343 	ld	a, (hl)
      00014D B7                     344 	or	a, a
      00014E 28 0E                  345 	jr	Z, 00117$
      000150 C5                     346 	push	bc
      000151 D5                     347 	push	de
      000152 F8 04                  348 	ldhl	sp,	#4
      000154 2A                     349 	ld	a, (hl+)
      000155 66                     350 	ld	h, (hl)
      000156 6F                     351 	ld	l, a
      000157 E5                     352 	push	hl
      000158 CDr6Cr02               353 	call	_skulltron_shoot
      00015B E8 04                  354 	add	sp, #4
      00015D C1                     355 	pop	bc
      00015E                        356 00117$:
                                    357 ;src/skulltron.c:34: if (skulltron->move_towards_player)
      00015E F8 07                  358 	ldhl	sp,#7
      000160 2A                     359 	ld	a, (hl+)
      000161 5F                     360 	ld	e, a
      000162 56                     361 	ld	d, (hl)
      000163 1A                     362 	ld	a, (de)
                                    363 ;src/skulltron.c:37: if (skulltron->move_towards_player && skulltron->shoot_when_stop) {
      000164 B7                     364 	or	a, a
      000165 28 11                  365 	jr	Z, 00122$
      000167 F5                     366 	push	af
      000168 0A                     367 	ld	a, (bc)
      000169 5F                     368 	ld	e, a
      00016A F1                     369 	pop	af
      00016B 1C                     370 	inc	e
      00016C 1D                     371 	dec	e
      00016D 28 09                  372 	jr	Z, 00122$
                                    373 ;src/skulltron.c:38: skulltron->status_interval_max = 44;
      00016F F8 05                  374 	ldhl	sp,	#5
      000171 2A                     375 	ld	a, (hl+)
      000172 66                     376 	ld	h, (hl)
      000173 6F                     377 	ld	l, a
      000174 36 2C                  378 	ld	(hl), #0x2c
      000176 18 0E                  379 	jr	00123$
      000178                        380 00122$:
                                    381 ;src/skulltron.c:39: } else if (!skulltron->move_towards_player && skulltron->shoot_when_stop) {
      000178 B7                     382 	or	a, a
      000179 20 0B                  383 	jr	NZ, 00123$
      00017B 0A                     384 	ld	a, (bc)
      00017C B7                     385 	or	a, a
      00017D 28 07                  386 	jr	Z, 00123$
                                    387 ;src/skulltron.c:40: skulltron->status_interval_max = 27;
      00017F F8 05                  388 	ldhl	sp,	#5
      000181 2A                     389 	ld	a, (hl+)
      000182 66                     390 	ld	h, (hl)
      000183 6F                     391 	ld	l, a
      000184 36 1B                  392 	ld	(hl), #0x1b
      000186                        393 00123$:
                                    394 ;src/skulltron.c:43: skulltron->move_towards_player = !skulltron->move_towards_player;
      000186 F8 07                  395 	ldhl	sp,#7
      000188 2A                     396 	ld	a, (hl+)
      000189 5F                     397 	ld	e, a
      00018A 56                     398 	ld	d, (hl)
      00018B 1A                     399 	ld	a, (de)
      00018C D6 01                  400 	sub	a,#0x01
      00018E 3E 00                  401 	ld	a, #0x00
      000190 17                     402 	rla
      000191 4F                     403 	ld	c, a
      000192 2B                     404 	dec	hl
      000193 2A                     405 	ld	a, (hl+)
      000194 66                     406 	ld	h, (hl)
      000195 6F                     407 	ld	l, a
      000196 71                     408 	ld	(hl), c
      000197                        409 00126$:
                                    410 ;src/skulltron.c:47: if (skulltron->move_towards_player) {
      000197 F8 07                  411 	ldhl	sp,#7
      000199 2A                     412 	ld	a, (hl+)
      00019A 5F                     413 	ld	e, a
      00019B 56                     414 	ld	d, (hl)
      00019C 1A                     415 	ld	a, (de)
      00019D 4F                     416 	ld	c, a
                                    417 ;src/skulltron.c:51: skulltron->entity.is_moving = true;
      00019E D1                     418 	pop	de
      00019F D5                     419 	push	de
      0001A0 21 0B 00               420 	ld	hl, #0x000b
      0001A3 19                     421 	add	hl, de
      0001A4 7D                     422 	ld	a, l
      0001A5 54                     423 	ld	d, h
      0001A6 F8 02                  424 	ldhl	sp,	#2
      0001A8 22                     425 	ld	(hl+), a
      0001A9 72                     426 	ld	(hl), d
                                    427 ;src/skulltron.c:47: if (skulltron->move_towards_player) {
      0001AA 79                     428 	ld	a, c
      0001AB B7                     429 	or	a, a
      0001AC CAr49r02               430 	jp	Z, 00138$
                                    431 ;src/skulltron.c:48: if (skulltron->pos.x > player_pos->x) {
      0001AF D1                     432 	pop	de
      0001B0 D5                     433 	push	de
      0001B1 1A                     434 	ld	a, (de)
      0001B2 23                     435 	inc	hl
      0001B3 77                     436 	ld	(hl), a
      0001B4 F8 10                  437 	ldhl	sp,	#16
      0001B6 2A                     438 	ld	a, (hl+)
      0001B7 5E                     439 	ld	e, (hl)
      0001B8 F8 05                  440 	ldhl	sp,	#5
      0001BA 22                     441 	ld	(hl+), a
      0001BB 7B                     442 	ld	a, e
      0001BC 32                     443 	ld	(hl-), a
      0001BD 2A                     444 	ld	a, (hl+)
      0001BE 5F                     445 	ld	e, a
      0001BF 56                     446 	ld	d, (hl)
      0001C0 1A                     447 	ld	a, (de)
      0001C1 23                     448 	inc	hl
      0001C2 77                     449 	ld	(hl), a
                                    450 ;src/skulltron.c:49: skulltron->pos.x -= skulltron->entity.spd;
      0001C3 D1                     451 	pop	de
      0001C4 D5                     452 	push	de
      0001C5 21 0A 00               453 	ld	hl, #0x000a
      0001C8 19                     454 	add	hl, de
      0001C9 4D                     455 	ld	c, l
      0001CA 44                     456 	ld	b, h
                                    457 ;src/skulltron.c:50: skulltron->entity.facing = fa_left;
      0001CB D1                     458 	pop	de
      0001CC D5                     459 	push	de
      0001CD 21 09 00               460 	ld	hl, #0x0009
      0001D0 19                     461 	add	hl, de
      0001D1 7D                     462 	ld	a, l
      0001D2 54                     463 	ld	d, h
      0001D3 F8 08                  464 	ldhl	sp,	#8
      0001D5 22                     465 	ld	(hl+), a
                                    466 ;src/skulltron.c:48: if (skulltron->pos.x > player_pos->x) {
      0001D6 7A                     467 	ld	a, d
      0001D7 32                     468 	ld	(hl-), a
      0001D8 2B                     469 	dec	hl
      0001D9 7E                     470 	ld	a, (hl)
      0001DA F8 04                  471 	ldhl	sp,	#4
      0001DC 96                     472 	sub	a, (hl)
      0001DD 30 17                  473 	jr	NC, 00130$
                                    474 ;src/skulltron.c:49: skulltron->pos.x -= skulltron->entity.spd;
      0001DF 0A                     475 	ld	a, (bc)
      0001E0 5F                     476 	ld	e, a
      0001E1 7E                     477 	ld	a, (hl)
      0001E2 93                     478 	sub	a, e
      0001E3 E1                     479 	pop	hl
      0001E4 E5                     480 	push	hl
      0001E5 77                     481 	ld	(hl), a
                                    482 ;src/skulltron.c:50: skulltron->entity.facing = fa_left;
      0001E6 F8 08                  483 	ldhl	sp,	#8
      0001E8 2A                     484 	ld	a, (hl+)
      0001E9 66                     485 	ld	h, (hl)
      0001EA 6F                     486 	ld	l, a
      0001EB 36 00                  487 	ld	(hl), #0x00
                                    488 ;src/skulltron.c:51: skulltron->entity.is_moving = true;
      0001ED F8 02                  489 	ldhl	sp,	#2
      0001EF 2A                     490 	ld	a, (hl+)
      0001F0 66                     491 	ld	h, (hl)
      0001F1 6F                     492 	ld	l, a
      0001F2 36 01                  493 	ld	(hl), #0x01
      0001F4 18 1D                  494 	jr	00131$
      0001F6                        495 00130$:
                                    496 ;src/skulltron.c:52: } else if (skulltron->pos.x < player_pos->x) {
      0001F6 F8 04                  497 	ldhl	sp,	#4
      0001F8 7E                     498 	ld	a, (hl)
      0001F9 F8 07                  499 	ldhl	sp,	#7
      0001FB 96                     500 	sub	a, (hl)
      0001FC 30 15                  501 	jr	NC, 00131$
                                    502 ;src/skulltron.c:53: skulltron->pos.x += skulltron->entity.spd;
      0001FE 0A                     503 	ld	a, (bc)
      0001FF F8 04                  504 	ldhl	sp,	#4
      000201 86                     505 	add	a, (hl)
      000202 E1                     506 	pop	hl
      000203 E5                     507 	push	hl
      000204 77                     508 	ld	(hl), a
                                    509 ;src/skulltron.c:54: skulltron->entity.facing = fa_right;
      000205 F8 08                  510 	ldhl	sp,	#8
      000207 2A                     511 	ld	a, (hl+)
      000208 66                     512 	ld	h, (hl)
      000209 6F                     513 	ld	l, a
      00020A 36 01                  514 	ld	(hl), #0x01
                                    515 ;src/skulltron.c:55: skulltron->entity.is_moving = true;
      00020C F8 02                  516 	ldhl	sp,	#2
      00020E 2A                     517 	ld	a, (hl+)
      00020F 66                     518 	ld	h, (hl)
      000210 6F                     519 	ld	l, a
      000211 36 01                  520 	ld	(hl), #0x01
      000213                        521 00131$:
                                    522 ;src/skulltron.c:58: if (skulltron->pos.y > player_pos->y) {
      000213 D1                     523 	pop	de
      000214 D5                     524 	push	de
      000215 13                     525 	inc	de
      000216 1A                     526 	ld	a, (de)
      000217 F8 09                  527 	ldhl	sp,	#9
      000219 77                     528 	ld	(hl), a
      00021A F8 05                  529 	ldhl	sp,	#5
      00021C 2A                     530 	ld	a, (hl+)
      00021D 66                     531 	ld	h, (hl)
      00021E 6F                     532 	ld	l, a
      00021F 23                     533 	inc	hl
      000220 7E                     534 	ld	a, (hl)
      000221 F8 08                  535 	ldhl	sp,	#8
      000223 77                     536 	ld	(hl), a
      000224 F8 08                  537 	ldhl	sp,	#8
      000226 2A                     538 	ld	a, (hl+)
      000227 96                     539 	sub	a, (hl)
      000228 30 0D                  540 	jr	NC, 00135$
                                    541 ;src/skulltron.c:59: skulltron->pos.y -= skulltron->entity.spd;
      00022A 0A                     542 	ld	a, (bc)
      00022B 4F                     543 	ld	c, a
      00022C 7E                     544 	ld	a, (hl)
      00022D 91                     545 	sub	a, c
      00022E 12                     546 	ld	(de), a
                                    547 ;src/skulltron.c:60: skulltron->entity.is_moving = true;
      00022F C1                     548 	pop	bc
      000230 E1                     549 	pop	hl
      000231 E5                     550 	push	hl
      000232 C5                     551 	push	bc
      000233 36 01                  552 	ld	(hl), #0x01
      000235 18 18                  553 	jr	00139$
      000237                        554 00135$:
                                    555 ;src/skulltron.c:61: } else if (skulltron->pos.y < player_pos->y) {
      000237 F8 09                  556 	ldhl	sp,	#9
      000239 3A                     557 	ld	a, (hl-)
      00023A 96                     558 	sub	a, (hl)
      00023B 30 12                  559 	jr	NC, 00139$
                                    560 ;src/skulltron.c:62: skulltron->pos.y += skulltron->entity.spd;
      00023D 0A                     561 	ld	a, (bc)
      00023E 23                     562 	inc	hl
      00023F 86                     563 	add	a, (hl)
      000240 12                     564 	ld	(de), a
                                    565 ;src/skulltron.c:63: skulltron->entity.is_moving = true;
      000241 C1                     566 	pop	bc
      000242 E1                     567 	pop	hl
      000243 E5                     568 	push	hl
      000244 C5                     569 	push	bc
      000245 36 01                  570 	ld	(hl), #0x01
      000247 18 06                  571 	jr	00139$
      000249                        572 00138$:
                                    573 ;src/skulltron.c:66: skulltron->entity.is_moving = false;
      000249 C1                     574 	pop	bc
      00024A E1                     575 	pop	hl
      00024B E5                     576 	push	hl
      00024C C5                     577 	push	bc
      00024D 36 00                  578 	ld	(hl), #0x00
      00024F                        579 00139$:
                                    580 ;src/skulltron.c:69: skulltron_check_collisions(skulltron, bullet);
      00024F F8 0E                  581 	ldhl	sp,	#14
      000251 2A                     582 	ld	a, (hl+)
      000252 66                     583 	ld	h, (hl)
      000253 4F                     584 	ld	c, a
      000254 44                     585 	ld	b, h
      000255 E1                     586 	pop	hl
      000256 E5                     587 	push	hl
      000257 C5                     588 	push	bc
      000258 E5                     589 	push	hl
      000259 CDrBEr02               590 	call	_skulltron_check_collisions
      00025C E8 04                  591 	add	sp, #4
                                    592 ;src/skulltron.c:70: skulltron_draw(skulltron);
      00025E F8 0C                  593 	ldhl	sp,	#12
      000260 2A                     594 	ld	a, (hl+)
      000261 66                     595 	ld	h, (hl)
      000262 6F                     596 	ld	l, a
      000263 E5                     597 	push	hl
      000264 CDr27r04               598 	call	_skulltron_draw
      000267 E8 02                  599 	add	sp, #2
      000269                        600 00140$:
                                    601 ;src/skulltron.c:71: }
      000269 E8 0A                  602 	add	sp, #10
      00026B C9                     603 	ret
                                    604 ;src/skulltron.c:73: void skulltron_shoot(skulltron_t *skulltron, bullet_t *enemy_bullet) {
                                    605 ;	---------------------------------
                                    606 ; Function skulltron_shoot
                                    607 ; ---------------------------------
      00026C                        608 _skulltron_shoot::
      00026C E8 FC                  609 	add	sp, #-4
                                    610 ;src/skulltron.c:74: enemy_bullet->pos.x = skulltron->pos.x;
      00026E F8 08                  611 	ldhl	sp,#8
      000270 2A                     612 	ld	a, (hl+)
      000271 4F                     613 	ld	c, a
      000272 46                     614 	ld	b, (hl)
      000273 F8 06                  615 	ldhl	sp,	#6
      000275 2A                     616 	ld	a, (hl+)
      000276 5E                     617 	ld	e, (hl)
      000277 F8 00                  618 	ldhl	sp,	#0
      000279 22                     619 	ld	(hl+), a
      00027A 73                     620 	ld	(hl), e
      00027B D1                     621 	pop	de
      00027C D5                     622 	push	de
      00027D 1A                     623 	ld	a, (de)
      00027E 02                     624 	ld	(bc), a
                                    625 ;src/skulltron.c:75: enemy_bullet->pos.y = skulltron->pos.y;
      00027F 59                     626 	ld	e, c
      000280 50                     627 	ld	d, b
      000281 13                     628 	inc	de
      000282 E1                     629 	pop	hl
      000283 E5                     630 	push	hl
      000284 23                     631 	inc	hl
      000285 7E                     632 	ld	a, (hl)
      000286 12                     633 	ld	(de), a
                                    634 ;src/skulltron.c:76: enemy_bullet->direction = skulltron->entity.facing;
      000287 21 04 00               635 	ld	hl, #0x0004
      00028A 09                     636 	add	hl, bc
      00028B 7D                     637 	ld	a, l
      00028C 54                     638 	ld	d, h
      00028D F8 02                  639 	ldhl	sp,	#2
      00028F 22                     640 	ld	(hl+), a
      000290 72                     641 	ld	(hl), d
      000291 D1                     642 	pop	de
      000292 D5                     643 	push	de
      000293 21 09 00               644 	ld	hl, #0x0009
      000296 19                     645 	add	hl, de
      000297 5D                     646 	ld	e, l
      000298 54                     647 	ld	d, h
      000299 1A                     648 	ld	a, (de)
      00029A F8 02                  649 	ldhl	sp,	#2
      00029C F5                     650 	push	af
      00029D 2A                     651 	ld	a, (hl+)
      00029E 66                     652 	ld	h, (hl)
      00029F 6F                     653 	ld	l, a
      0002A0 F1                     654 	pop	af
      0002A1 77                     655 	ld	(hl), a
                                    656 ;src/skulltron.c:77: enemy_bullet->sprite = S_TURRETBEAM;
      0002A2 69                     657 	ld	l, c
      0002A3 60                     658 	ld	h, b
      0002A4 23                     659 	inc	hl
      0002A5 23                     660 	inc	hl
      0002A6 36 1B                  661 	ld	(hl), #0x1b
                                    662 ;src/skulltron.c:78: enemy_bullet->spd = 2;
      0002A8 69                     663 	ld	l, c
      0002A9 60                     664 	ld	h, b
      0002AA 23                     665 	inc	hl
      0002AB 23                     666 	inc	hl
      0002AC 23                     667 	inc	hl
      0002AD 36 02                  668 	ld	(hl), #0x02
                                    669 ;src/skulltron.c:79: enemy_bullet->disabled = false;
      0002AF 21 05 00               670 	ld	hl, #0x0005
      0002B2 09                     671 	add	hl, bc
      0002B3 36 00                  672 	ld	(hl), #0x00
                                    673 ;src/skulltron.c:81: bullet_spawn(enemy_bullet);
      0002B5 C5                     674 	push	bc
      0002B6 CDr00r00               675 	call	_bullet_spawn
      0002B9 E8 02                  676 	add	sp, #2
                                    677 ;src/skulltron.c:82: }
      0002BB E8 04                  678 	add	sp, #4
      0002BD C9                     679 	ret
                                    680 ;src/skulltron.c:84: void skulltron_check_collisions(skulltron_t *skulltron, bullet_t *bullet) {
                                    681 ;	---------------------------------
                                    682 ; Function skulltron_check_collisions
                                    683 ; ---------------------------------
      0002BE                        684 _skulltron_check_collisions::
      0002BE E8 F4                  685 	add	sp, #-12
                                    686 ;src/skulltron.c:85: if (!bullet->disabled && skulltron->pos.x >= bullet->pos.x - 1 && skulltron->pos.y >= bullet->pos.y - 1 && skulltron->pos.x <= bullet->pos.x + 10 && skulltron->pos.y <= bullet->pos.y + 10) {
      0002C0 F8 10                  687 	ldhl	sp,#16
      0002C2 2A                     688 	ld	a, (hl+)
      0002C3 4F                     689 	ld	c, a
      0002C4 46                     690 	ld	b, (hl)
      0002C5 21 05 00               691 	ld	hl, #0x0005
      0002C8 09                     692 	add	hl, bc
      0002C9 7E                     693 	ld	a, (hl)
      0002CA B7                     694 	or	a, a
      0002CB C2rE1r03               695 	jp	NZ, 00107$
      0002CE F8 0E                  696 	ldhl	sp,	#14
      0002D0 2A                     697 	ld	a, (hl+)
      0002D1 5E                     698 	ld	e, (hl)
      0002D2 F8 00                  699 	ldhl	sp,	#0
      0002D4 22                     700 	ld	(hl+), a
      0002D5 73                     701 	ld	(hl), e
      0002D6 D1                     702 	pop	de
      0002D7 D5                     703 	push	de
      0002D8 1A                     704 	ld	a, (de)
      0002D9 F8 09                  705 	ldhl	sp,	#9
      0002DB 77                     706 	ld	(hl), a
      0002DC 0A                     707 	ld	a, (bc)
      0002DD F8 02                  708 	ldhl	sp,	#2
      0002DF 77                     709 	ld	(hl), a
      0002E0 AF                     710 	xor	a, a
      0002E1 23                     711 	inc	hl
      0002E2 32                     712 	ld	(hl-), a
      0002E3 2A                     713 	ld	a, (hl+)
      0002E4 5F                     714 	ld	e, a
      0002E5 56                     715 	ld	d, (hl)
      0002E6 21 01 00               716 	ld	hl, #0x0001
      0002E9 7B                     717 	ld	a, e
      0002EA 95                     718 	sub	a, l
      0002EB 5F                     719 	ld	e, a
      0002EC 7A                     720 	ld	a, d
      0002ED 9C                     721 	sbc	a, h
      0002EE F8 0B                  722 	ldhl	sp,	#11
      0002F0 32                     723 	ld	(hl-), a
      0002F1 7B                     724 	ld	a, e
      0002F2 32                     725 	ld	(hl-), a
      0002F3 7E                     726 	ld	a, (hl)
      0002F4 F8 04                  727 	ldhl	sp,	#4
      0002F6 77                     728 	ld	(hl), a
      0002F7 AF                     729 	xor	a, a
      0002F8 23                     730 	inc	hl
      0002F9 77                     731 	ld	(hl), a
      0002FA F8 04                  732 	ldhl	sp,	#4
      0002FC 5D                     733 	ld	e, l
      0002FD 54                     734 	ld	d, h
      0002FE F8 0A                  735 	ldhl	sp,	#10
      000300 1A                     736 	ld	a, (de)
      000301 96                     737 	sub	a, (hl)
      000302 23                     738 	inc	hl
      000303 13                     739 	inc	de
      000304 1A                     740 	ld	a, (de)
      000305 9E                     741 	sbc	a, (hl)
      000306 1A                     742 	ld	a, (de)
      000307 57                     743 	ld	d, a
      000308 CB 7E                  744 	bit	7, (hl)
      00030A 28 07                  745 	jr	Z, 00134$
      00030C CB 7A                  746 	bit	7, d
      00030E 20 08                  747 	jr	NZ, 00135$
      000310 BF                     748 	cp	a, a
      000311 18 05                  749 	jr	00135$
      000313                        750 00134$:
      000313 CB 7A                  751 	bit	7, d
      000315 28 01                  752 	jr	Z, 00135$
      000317 37                     753 	scf
      000318                        754 00135$:
      000318 DArE1r03               755 	jp	C, 00107$
      00031B E1                     756 	pop	hl
      00031C E5                     757 	push	hl
      00031D 23                     758 	inc	hl
      00031E 7E                     759 	ld	a, (hl)
      00031F F8 0B                  760 	ldhl	sp,	#11
      000321 77                     761 	ld	(hl), a
      000322 59                     762 	ld	e, c
      000323 50                     763 	ld	d, b
      000324 13                     764 	inc	de
      000325 1A                     765 	ld	a, (de)
      000326 F8 06                  766 	ldhl	sp,	#6
      000328 77                     767 	ld	(hl), a
      000329 AF                     768 	xor	a, a
      00032A 23                     769 	inc	hl
      00032B 32                     770 	ld	(hl-), a
      00032C 2A                     771 	ld	a, (hl+)
      00032D 5F                     772 	ld	e, a
      00032E 56                     773 	ld	d, (hl)
      00032F 21 01 00               774 	ld	hl, #0x0001
      000332 7B                     775 	ld	a, e
      000333 95                     776 	sub	a, l
      000334 5F                     777 	ld	e, a
      000335 7A                     778 	ld	a, d
      000336 9C                     779 	sbc	a, h
      000337 F8 09                  780 	ldhl	sp,	#9
      000339 32                     781 	ld	(hl-), a
      00033A 73                     782 	ld	(hl), e
      00033B F8 0B                  783 	ldhl	sp,	#11
      00033D 3A                     784 	ld	a, (hl-)
      00033E 77                     785 	ld	(hl), a
      00033F AF                     786 	xor	a, a
      000340 23                     787 	inc	hl
      000341 77                     788 	ld	(hl), a
      000342 F8 0A                  789 	ldhl	sp,	#10
      000344 5D                     790 	ld	e, l
      000345 54                     791 	ld	d, h
      000346 F8 08                  792 	ldhl	sp,	#8
      000348 1A                     793 	ld	a, (de)
      000349 96                     794 	sub	a, (hl)
      00034A 23                     795 	inc	hl
      00034B 13                     796 	inc	de
      00034C 1A                     797 	ld	a, (de)
      00034D 9E                     798 	sbc	a, (hl)
      00034E 1A                     799 	ld	a, (de)
      00034F 57                     800 	ld	d, a
      000350 CB 7E                  801 	bit	7, (hl)
      000352 28 07                  802 	jr	Z, 00136$
      000354 CB 7A                  803 	bit	7, d
      000356 20 08                  804 	jr	NZ, 00137$
      000358 BF                     805 	cp	a, a
      000359 18 05                  806 	jr	00137$
      00035B                        807 00136$:
      00035B CB 7A                  808 	bit	7, d
      00035D 28 01                  809 	jr	Z, 00137$
      00035F 37                     810 	scf
      000360                        811 00137$:
      000360 DArE1r03               812 	jp	C, 00107$
      000363 F8 02                  813 	ldhl	sp,#2
      000365 2A                     814 	ld	a, (hl+)
      000366 5F                     815 	ld	e, a
      000367 56                     816 	ld	d, (hl)
      000368 21 0A 00               817 	ld	hl, #0x000a
      00036B 19                     818 	add	hl, de
      00036C 7D                     819 	ld	a, l
      00036D 54                     820 	ld	d, h
      00036E F8 08                  821 	ldhl	sp,	#8
      000370 22                     822 	ld	(hl+), a
      000371 72                     823 	ld	(hl), d
      000372 F8 08                  824 	ldhl	sp,	#8
      000374 5D                     825 	ld	e, l
      000375 54                     826 	ld	d, h
      000376 F8 04                  827 	ldhl	sp,	#4
      000378 1A                     828 	ld	a, (de)
      000379 96                     829 	sub	a, (hl)
      00037A 23                     830 	inc	hl
      00037B 13                     831 	inc	de
      00037C 1A                     832 	ld	a, (de)
      00037D 9E                     833 	sbc	a, (hl)
      00037E 1A                     834 	ld	a, (de)
      00037F 57                     835 	ld	d, a
      000380 CB 7E                  836 	bit	7, (hl)
      000382 28 07                  837 	jr	Z, 00138$
      000384 CB 7A                  838 	bit	7, d
      000386 20 08                  839 	jr	NZ, 00139$
      000388 BF                     840 	cp	a, a
      000389 18 05                  841 	jr	00139$
      00038B                        842 00138$:
      00038B CB 7A                  843 	bit	7, d
      00038D 28 01                  844 	jr	Z, 00139$
      00038F 37                     845 	scf
      000390                        846 00139$:
      000390 38 4F                  847 	jr	C, 00107$
      000392 F8 06                  848 	ldhl	sp,#6
      000394 2A                     849 	ld	a, (hl+)
      000395 5F                     850 	ld	e, a
      000396 56                     851 	ld	d, (hl)
      000397 21 0A 00               852 	ld	hl, #0x000a
      00039A 19                     853 	add	hl, de
      00039B 7D                     854 	ld	a, l
      00039C 54                     855 	ld	d, h
      00039D F8 08                  856 	ldhl	sp,	#8
      00039F 22                     857 	ld	(hl+), a
      0003A0 72                     858 	ld	(hl), d
      0003A1 F8 08                  859 	ldhl	sp,	#8
      0003A3 5D                     860 	ld	e, l
      0003A4 54                     861 	ld	d, h
      0003A5 F8 0A                  862 	ldhl	sp,	#10
      0003A7 1A                     863 	ld	a, (de)
      0003A8 96                     864 	sub	a, (hl)
      0003A9 23                     865 	inc	hl
      0003AA 13                     866 	inc	de
      0003AB 1A                     867 	ld	a, (de)
      0003AC 9E                     868 	sbc	a, (hl)
      0003AD 1A                     869 	ld	a, (de)
      0003AE 57                     870 	ld	d, a
      0003AF CB 7E                  871 	bit	7, (hl)
      0003B1 28 07                  872 	jr	Z, 00140$
      0003B3 CB 7A                  873 	bit	7, d
      0003B5 20 08                  874 	jr	NZ, 00141$
      0003B7 BF                     875 	cp	a, a
      0003B8 18 05                  876 	jr	00141$
      0003BA                        877 00140$:
      0003BA CB 7A                  878 	bit	7, d
      0003BC 28 01                  879 	jr	Z, 00141$
      0003BE 37                     880 	scf
      0003BF                        881 00141$:
      0003BF 38 20                  882 	jr	C, 00107$
                                    883 ;src/skulltron.c:86: skulltron->entity.is_dead = true;
      0003C1 D1                     884 	pop	de
      0003C2 D5                     885 	push	de
      0003C3 21 0E 00               886 	ld	hl, #0x000e
      0003C6 19                     887 	add	hl, de
      0003C7 36 01                  888 	ld	(hl), #0x01
                                    889 ;src/skulltron.c:87: skulltron->entity.sprite.frame = S_EXPLO1;
      0003C9 D1                     890 	pop	de
      0003CA D5                     891 	push	de
      0003CB 21 08 00               892 	ld	hl, #0x0008
      0003CE 19                     893 	add	hl, de
      0003CF 36 16                  894 	ld	(hl), #0x16
                                    895 ;src/skulltron.c:88: skulltron->destroy_timer = 0;
      0003D1 D1                     896 	pop	de
      0003D2 D5                     897 	push	de
      0003D3 21 14 00               898 	ld	hl, #0x0014
      0003D6 19                     899 	add	hl, de
      0003D7 5D                     900 	ld	e, l
      0003D8 54                     901 	ld	d, h
      0003D9 AF                     902 	xor	a, a
      0003DA 12                     903 	ld	(de), a
                                    904 ;src/skulltron.c:90: bullet_destroy(bullet);
      0003DB C5                     905 	push	bc
      0003DC CDr00r00               906 	call	_bullet_destroy
      0003DF E8 02                  907 	add	sp, #2
      0003E1                        908 00107$:
                                    909 ;src/skulltron.c:92: }
      0003E1 E8 0C                  910 	add	sp, #12
      0003E3 C9                     911 	ret
                                    912 ;src/skulltron.c:94: void skulltron_nextframe(skulltron_t *skulltron) {
                                    913 ;	---------------------------------
                                    914 ; Function skulltron_nextframe
                                    915 ; ---------------------------------
      0003E4                        916 _skulltron_nextframe::
                                    917 ;src/skulltron.c:95: skulltron->entity.sprite.frame = (skulltron->entity.facing == fa_left ? skulltron->entity.sprite.left_anim_start : skulltron->entity.sprite.right_anim_start);
      0003E4 C1                     918 	pop	bc
      0003E5 D1                     919 	pop	de
      0003E6 D5                     920 	push	de
      0003E7 C5                     921 	push	bc
      0003E8 21 08 00               922 	ld	hl, #0x0008
      0003EB 19                     923 	add	hl, de
      0003EC 4D                     924 	ld	c, l
      0003ED 44                     925 	ld	b, h
      0003EE 21 09 00               926 	ld	hl, #0x0009
      0003F1 19                     927 	add	hl, de
      0003F2 7E                     928 	ld	a, (hl)
      0003F3 B7                     929 	or	a, a
      0003F4 20 07                  930 	jr	NZ, 00103$
      0003F6 13                     931 	inc	de
      0003F7 13                     932 	inc	de
      0003F8 13                     933 	inc	de
      0003F9 13                     934 	inc	de
      0003FA 1A                     935 	ld	a, (de)
      0003FB 18 05                  936 	jr	00104$
      0003FD                        937 00103$:
      0003FD 21 06 00               938 	ld	hl, #0x0006
      000400 19                     939 	add	hl, de
      000401 7E                     940 	ld	a, (hl)
      000402                        941 00104$:
      000402 02                     942 	ld	(bc), a
                                    943 ;src/skulltron.c:96: }
      000403 C9                     944 	ret
                                    945 ;src/skulltron.c:98: void skulltron_kill(skulltron_t *skulltron) {
                                    946 ;	---------------------------------
                                    947 ; Function skulltron_kill
                                    948 ; ---------------------------------
      000404                        949 _skulltron_kill::
                                    950 ;src/skulltron.c:100: skulltron->pos.x = 200;
      000404 C1                     951 	pop	bc
      000405 D1                     952 	pop	de
      000406 D5                     953 	push	de
      000407 C5                     954 	push	bc
      000408 3E C8                  955 	ld	a, #0xc8
      00040A 12                     956 	ld	(de), a
                                    957 ;src/skulltron.c:101: skulltron->pos.y = 200;
      00040B 6B                     958 	ld	l, e
      00040C 62                     959 	ld	h, d
      00040D 23                     960 	inc	hl
      00040E 36 C8                  961 	ld	(hl), #0xc8
                                    962 ;src/skulltron.c:103: if (!skulltron->entity.is_dead) skulltron->entity.is_dead = true;
      000410 21 0E 00               963 	ld	hl, #0x000e
      000413 19                     964 	add	hl, de
      000414 7E                     965 	ld	a, (hl)
      000415 B7                     966 	or	a, a
      000416 20 02                  967 	jr	NZ, 00103$
      000418 36 01                  968 	ld	(hl), #0x01
                                    969 ;src/skulltron.c:104: if (!skulltron->destroy_timer != 50) skulltron->destroy_timer = 50;
      00041A                        970 00103$:
      00041A 21 14 00               971 	ld	hl, #0x0014
      00041D 19                     972 	add	hl, de
      00041E 36 32                  973 	ld	(hl), #0x32
                                    974 ;src/skulltron.c:105: skulltron_draw(skulltron);
      000420 D5                     975 	push	de
      000421 CDr27r04               976 	call	_skulltron_draw
      000424 E8 02                  977 	add	sp, #2
                                    978 ;src/skulltron.c:106: }
      000426 C9                     979 	ret
                                    980 ;src/skulltron.c:108: void skulltron_draw(skulltron_t *skulltron) {
                                    981 ;	---------------------------------
                                    982 ; Function skulltron_draw
                                    983 ; ---------------------------------
      000427                        984 _skulltron_draw::
      000427 3B                     985 	dec	sp
                                    986 ;src/skulltron.c:109: set_sprite_tile(S_SKULLTRON, skulltron->entity.sprite.frame);
      000428 F8 03                  987 	ldhl	sp,#3
      00042A 2A                     988 	ld	a, (hl+)
      00042B 5F                     989 	ld	e, a
      00042C 56                     990 	ld	d, (hl)
      00042D 21 08 00               991 	ld	hl, #0x0008
      000430 19                     992 	add	hl, de
      000431 7E                     993 	ld	a, (hl)
      000432 F8 00                  994 	ldhl	sp,	#0
      000434 77                     995 	ld	(hl), a
                                    996 ;/opt/gbdk/include/gb/gb.h:610: shadow_OAM[nb].tile=tile; 
      000435 01r32r00               997 	ld	bc, #_shadow_OAM+50
      000438 F8 00                  998 	ldhl	sp,	#0
      00043A 7E                     999 	ld	a, (hl)
      00043B 02                    1000 	ld	(bc), a
                                   1001 ;src/skulltron.c:110: move_sprite(S_SKULLTRON, skulltron->pos.x, skulltron->pos.y);
      00043C 6B                    1002 	ld	l, e
      00043D 62                    1003 	ld	h, d
      00043E 23                    1004 	inc	hl
      00043F 46                    1005 	ld	b, (hl)
      000440 1A                    1006 	ld	a, (de)
      000441 4F                    1007 	ld	c, a
                                   1008 ;/opt/gbdk/include/gb/gb.h:652: OAM_item_t * itm = &shadow_OAM[nb];
      000442 21r30r00              1009 	ld	hl, #(_shadow_OAM + 0x0030)
                                   1010 ;/opt/gbdk/include/gb/gb.h:653: itm->y=y, itm->x=x; 
      000445 78                    1011 	ld	a, b
      000446 22                    1012 	ld	(hl+), a
      000447 71                    1013 	ld	(hl), c
                                   1014 ;src/skulltron.c:110: move_sprite(S_SKULLTRON, skulltron->pos.x, skulltron->pos.y);
                                   1015 ;src/skulltron.c:111: }
      000448 33                    1016 	inc	sp
      000449 C9                    1017 	ret
                                   1018 	.area _CODE
                                   1019 	.area _CABS (ABS)
