ASxxxx Assembler V02.00 + NoICE + SDCC mods  (GameBoy Z80-like CPU), page 1.
Hexadecimal [24-Bits]

Symbol Table

    .__.$$$.                                                    =  002710 L
    .__.ABS.                                                    =  000000 G
    .__.CPU.                                                    =  000000 L
    .__.H$L.                                                    =  000000 L
    __modsint                                                      ****** GX
    _bullet_destroy                                                ****** GX
  0 _fps                                                           000060 R
  1 _last_enemy                                                    000001 R
  1 _paused                                                        000000 R
    _shadow_OAM                                                    ****** GX
  0 _spike_check_collisions                                        00018D GR
  0 _spike_draw                                                    000328 GR
  0 _spike_kill                                                    000305 GR
  0 _spike_spawn                                                   000000 GR
  0 _spike_update                                                  000061 GR

ASxxxx Assembler V02.00 + NoICE + SDCC mods  (GameBoy Z80-like CPU), page 2.
Hexadecimal [24-Bits]

Area Table

   0 _CODE                                      size    34B   flags    0
   1 _DATA                                      size      2   flags    0
   2 _DABS                                      size      0   flags    8
   3 _HOME                                      size      0   flags    0
   4 _GSINIT                                    size      A   flags    0
   5 _GSFINAL                                   size      0   flags    0
   6 _CABS                                      size      0   flags    8

