ASxxxx Assembler V02.00 + NoICE + SDCC mods  (GameBoy Z80-like CPU), page 1.
Hexadecimal [24-Bits]

Symbol Table

    .__.$$$.                                                    =  002710 L
    .__.ABS.                                                    =  000000 G
    .__.CPU.                                                    =  000000 L
    .__.H$L.                                                    =  000000 L
    _DIV_REG                                                       ****** GX
    __modsint                                                      ****** GX
    __mulint                                                       ****** GX
    __muluchar                                                     ****** GX
    _abs                                                           ****** GX
    _arand                                                         ****** GX
    _bullet_destroy                                                ****** GX
  0 _fps                                                           0000FC R
    _global_frame                                                  ****** GX
    _initarand                                                     ****** GX
  1 _last_enemy                                                    000001 R
  1 _paused                                                        000000 R
    _rand_menuframe                                                ****** GX
    _rand_menukey                                                  ****** GX
  1 _randfactor                                                    000002 GR
  1 _randnum                                                       000003 GR
    _seed                                                          ****** GX
    _shadow_OAM                                                    ****** GX
  0 _splitter_check_collisions                                     0003F5 GR
  0 _splitter_draw                                                 000580 GR
  0 _splitter_kill                                                 00055D GR
  0 _splitter_nextframe                                            00051B GR
  0 _splitter_spawn                                                000000 GR
  0 _splitter_update                                               0000FD GR


ASxxxx Assembler V02.00 + NoICE + SDCC mods  (GameBoy Z80-like CPU), page 2.
Hexadecimal [24-Bits]

Area Table

   0 _CODE                                      size    5A3   flags    0
   1 _DATA                                      size      4   flags    0
   2 _DABS                                      size      0   flags    8
   3 _HOME                                      size      0   flags    0
   4 _GSINIT                                    size      A   flags    0
   5 _GSFINAL                                   size      0   flags    0
   6 _CABS                                      size      0   flags    8

