                                      1 ;--------------------------------------------------------
                                      2 ; File Created by SDCC : free open source ANSI-C Compiler
                                      3 ; Version 4.0.3 #11875 (Linux)
                                      4 ;--------------------------------------------------------
                                      5 	.module sprites
                                      6 	.optsdcc -mgbz80
                                      7 	
                                      8 ;--------------------------------------------------------
                                      9 ; Public variables in this module
                                     10 ;--------------------------------------------------------
                                     11 	.globl _sprites
                                     12 ;--------------------------------------------------------
                                     13 ; special function registers
                                     14 ;--------------------------------------------------------
                                     15 ;--------------------------------------------------------
                                     16 ; ram data
                                     17 ;--------------------------------------------------------
                                     18 	.area _DATA
      000000                         19 _sprites::
      000000                         20 	.ds 512
                                     21 ;--------------------------------------------------------
                                     22 ; absolute external ram data
                                     23 ;--------------------------------------------------------
                                     24 	.area _DABS (ABS)
                                     25 ;--------------------------------------------------------
                                     26 ; global & static initialisations
                                     27 ;--------------------------------------------------------
                                     28 	.area _HOME
                                     29 	.area _GSINIT
                                     30 	.area _GSFINAL
                                     31 	.area _GSINIT
                                     32 ;src/sprites.c:9: unsigned char sprites[] =
      000000 01r00r00                33 	ld	bc, #_sprites+0
      000003 59                      34 	ld	e, c
      000004 50                      35 	ld	d, b
      000005 CDr00r00                36 	call	__initrleblock
      000008 7F                      37 	.db	#127
      000009 3C 3C 7E 46 7E 46 3C    38 	.db	#0x3C, #0x3C, #0x7E, #0x46, #0x7E, #0x46, #0x3C, #0x3C
             3C
      000011 FE FE 7E 66 3C 3C 24    39 	.db	#0xFE, #0xFE, #0x7E, #0x66, #0x3C, #0x3C, #0x24, #0x24
             24
      000019 3C 3C 7E 46 7E 46 3C    40 	.db	#0x3C, #0x3C, #0x7E, #0x46, #0x7E, #0x46, #0x3C, #0x3C
             3C
      000021 FE FE 7E 66 3C 3C 18    41 	.db	#0xFE, #0xFE, #0x7E, #0x66, #0x3C, #0x3C, #0x18, #0x18
             18
      000029 3C 3C 7E 46 7E 46 3C    42 	.db	#0x3C, #0x3C, #0x7E, #0x46, #0x7E, #0x46, #0x3C, #0x3C
             3C
      000031 FE FE 7E 66 3C 3C 24    43 	.db	#0xFE, #0xFE, #0x7E, #0x66, #0x3C, #0x3C, #0x24, #0x24
             24
      000039 3C 3C 7E 46 7E 46 3C    44 	.db	#0x3C, #0x3C, #0x7E, #0x46, #0x7E, #0x46, #0x3C, #0x3C
             3C
      000041 FE FE 7E 66 3C 3C 42    45 	.db	#0xFE, #0xFE, #0x7E, #0x66, #0x3C, #0x3C, #0x42, #0x42
             42
      000049 3C 3C 7E 62 7E 62 3C    46 	.db	#0x3C, #0x3C, #0x7E, #0x62, #0x7E, #0x62, #0x3C, #0x3C
             3C
      000051 7F 7F 7E 66 3C 3C 24    47 	.db	#0x7F, #0x7F, #0x7E, #0x66, #0x3C, #0x3C, #0x24, #0x24
             24
      000059 3C 3C 7E 62 7E 62 3C    48 	.db	#0x3C, #0x3C, #0x7E, #0x62, #0x7E, #0x62, #0x3C, #0x3C
             3C
      000061 7F 7F 7E 66 3C 3C 18    49 	.db	#0x7F, #0x7F, #0x7E, #0x66, #0x3C, #0x3C, #0x18, #0x18
             18
      000069 3C 3C 7E 62 7E 62 3C    50 	.db	#0x3C, #0x3C, #0x7E, #0x62, #0x7E, #0x62, #0x3C, #0x3C
             3C
      000071 7F 7F 7E 66 3C 3C 24    51 	.db	#0x7F, #0x7F, #0x7E, #0x66, #0x3C, #0x3C, #0x24, #0x24
             24
      000079 3C 3C 7E 62 7E 62 3C    52 	.db	#0x3C, #0x3C, #0x7E, #0x62, #0x7E, #0x62, #0x3C, #0x3C
             3C
      000081 7F 7F 7E 66 3C 3C 42    53 	.db	#0x7F, #0x7F, #0x7E, #0x66, #0x3C, #0x3C, #0x42
      000088 7F                      54 	.db	#127
      000089 42 00 00 3C 3C FF FF    55 	.db	#0x42, #0x00, #0x00, #0x3C, #0x3C, #0xFF, #0xFF, #0x7E
             7E
      000091 66 3C 3C 42 42 E7 A7    56 	.db	#0x66, #0x3C, #0x3C, #0x42, #0x42, #0xE7, #0xA7, #0x42
             42
      000099 42 00 00 3C 3C FF FF    57 	.db	#0x42, #0x00, #0x00, #0x3C, #0x3C, #0xFF, #0xFF, #0x7E
             7E
      0000A1 66 3C 3C 42 42 E7 E5    58 	.db	#0x66, #0x3C, #0x3C, #0x42, #0x42, #0xE7, #0xE5, #0x42
             42
      0000A9 42 42 42 5A 5A FF FF    59 	.db	#0x42, #0x42, #0x42, #0x5A, #0x5A, #0xFF, #0xFF, #0x7E
             7E
      0000B1 66 3C 3C 42 42 E7 A7    60 	.db	#0x66, #0x3C, #0x3C, #0x42, #0x42, #0xE7, #0xA7, #0x42
             42
      0000B9 42 42 42 5A 5A FF FF    61 	.db	#0x42, #0x42, #0x42, #0x5A, #0x5A, #0xFF, #0xFF, #0x7E
             7E
      0000C1 66 3C 3C 42 42 E7 E5    62 	.db	#0x66, #0x3C, #0x3C, #0x42, #0x42, #0xE7, #0xE5, #0x42
             42
      0000C9 42 00 00 7E 7E 81 FF    63 	.db	#0x42, #0x00, #0x00, #0x7E, #0x7E, #0x81, #0xFF, #0x81
             81
      0000D1 D7 41 7F 86 FE D8 F8    64 	.db	#0xD7, #0x41, #0x7F, #0x86, #0xFE, #0xD8, #0xF8, #0xA8
             A8
      0000D9 A8 00 00 7E 7E 81 FF    65 	.db	#0xA8, #0x00, #0x00, #0x7E, #0x7E, #0x81, #0xFF, #0x81
             81
      0000E1 EB 82 FE 61 7F 1B 1F    66 	.db	#0xEB, #0x82, #0xFE, #0x61, #0x7F, #0x1B, #0x1F, #0x15
             15
      0000E9 15 3C 3C FF FF FF BB    67 	.db	#0x15, #0x3C, #0x3C, #0xFF, #0xFF, #0xFF, #0xBB, #0xFF
             FF
      0000F1 93 7F 7F FE FE F8 F8    68 	.db	#0x93, #0x7F, #0x7F, #0xFE, #0xFE, #0xF8, #0xF8, #0xA8
             A8
      0000F9 A8 3C 3C FF FF FF DD    69 	.db	#0xA8, #0x3C, #0x3C, #0xFF, #0xFF, #0xFF, #0xDD, #0xFF
             FF
      000101 C9 FE FE 7F 7F 1F 1F    70 	.db	#0xC9, #0xFE, #0xFE, #0x7F, #0x7F, #0x1F, #0x1F
      000108 7F                      71 	.db	#127
      000109 15 15 C0 C0 70 70 78    72 	.db	#0x15, #0x15, #0xC0, #0xC0, #0x70, #0x70, #0x78, #0x68
             68
      000111 78 78 20 20 3E 3E 70    73 	.db	#0x78, #0x78, #0x20, #0x20, #0x3E, #0x3E, #0x70, #0x30
             30
      000119 60 00 03 03 0E 0E 1E    74 	.db	#0x60, #0x00, #0x03, #0x03, #0x0E, #0x0E, #0x1E, #0x16
             16
      000121 1E 1E 04 04 7C 7C 0E    75 	.db	#0x1E, #0x1E, #0x04, #0x04, #0x7C, #0x7C, #0x0E, #0x0C
             0C
      000129 06 00 3C 3C 5A 42 A5    76 	.db	#0x06, #0x00, #0x3C, #0x3C, #0x5A, #0x42, #0xA5, #0x99
             99
      000131 DB BD DB BD A5 99 5A    77 	.db	#0xDB, #0xBD, #0xDB, #0xBD, #0xA5, #0x99, #0x5A, #0x42
             42
      000139 3C 3C 00 3C 3C 42 66    78 	.db	#0x3C, #0x3C, #0x00, #0x3C, #0x3C, #0x42, #0x66, #0x99
             99
      000141 5A BD 5A BD 66 99 3C    79 	.db	#0x5A, #0xBD, #0x5A, #0xBD, #0x66, #0x99, #0x3C, #0x42
             42
      000149 00 3C 42 42 24 24 18    80 	.db	#0x00, #0x3C, #0x42, #0x42, #0x24, #0x24, #0x18, #0x18
             18
      000151 FF FF 3C 3C 3C 3C 42    81 	.db	#0xFF, #0xFF, #0x3C, #0x3C, #0x3C, #0x3C, #0x42, #0x42
             42
      000159 81 81 04 08 10 10 38    82 	.db	#0x81, #0x81, #0x04, #0x08, #0x10, #0x10, #0x38, #0x38
             38
      000161 7C 7C D6 D6 D6 D6 7C    83 	.db	#0x7C, #0x7C, #0xD6, #0xD6, #0xD6, #0xD6, #0x7C, #0x7C
             7C
      000169 38 38 00 99 00 5A 5A    84 	.db	#0x38, #0x38, #0x00, #0x99, #0x00, #0x5A, #0x5A, #0x66
             66
      000171 3C E7 5A 66 00 5A 00    85 	.db	#0x3C, #0xE7, #0x5A, #0x66, #0x00, #0x5A, #0x00, #0x99
             99
      000179 00 00 99 00 5A 00 66    86 	.db	#0x00, #0x00, #0x99, #0x00, #0x5A, #0x00, #0x66, #0x5A
             5A
      000181 E7 3C 66 5A 5A 00 99    87 	.db	#0xE7, #0x3C, #0x66, #0x5A, #0x5A, #0x00, #0x99
      000188 2F                      88 	.db	#47
      000189 00 00 00 00 3C 00 3C    89 	.db	#0x00, #0x00, #0x00, #0x00, #0x3C, #0x00, #0x3C, #0x00
             00
      000191 3C 00 3C 00 3C 00 3C    90 	.db	#0x3C, #0x00, #0x3C, #0x00, #0x3C, #0x00, #0x3C, #0x00
             00
      000199 3C 00 3C 00 00 18 00    91 	.db	#0x3C, #0x00, #0x3C, #0x00, #0x00, #0x18, #0x00, #0x24
             24
      0001A1 00 6C 02 78 06 30 0C    92 	.db	#0x00, #0x6C, #0x02, #0x78, #0x06, #0x30, #0x0C, #0x00
             00
      0001A9 18 00 00 00 80 00 60    93 	.db	#0x18, #0x00, #0x00, #0x00, #0x80, #0x00, #0x60, #0x54
             54
      0001B1 7F 00 FF 00 E0 00 C0    94 	.db	#0x7F, #0x00, #0xFF, #0x00, #0xE0, #0x00, #0xC0
      0001B8 F5 00                   95 	.db	#-11, #0x00
      0001BA 03                      96 	.db	#3
      0001BB FF 00 FF                97 	.db	#0xFF, #0x00, #0xFF
      0001BE F5 00                   98 	.db	#-11, #0x00
      0001C0 05                      99 	.db	#5
      0001C1 5A 00 24 00 5A         100 	.db	#0x5A, #0x00, #0x24, #0x00, #0x5A
      0001C6 F7 00                  101 	.db	#-9, #0x00
      0001C8 1D                     102 	.db	#29
      0001C9 7E 24 5A 5E 00 3C 42   103 	.db	#0x7E, #0x24, #0x5A, #0x5E, #0x00, #0x3C, #0x42, #0x18
             18
      0001D1 66 00 FF 00 00 FF 66   104 	.db	#0x66, #0x00, #0xFF, #0x00, #0x00, #0xFF, #0x66, #0x99
             99
      0001D9 9F 81 BF 81 FF 81 FF   105 	.db	#0x9F, #0x81, #0xBF, #0x81, #0xFF, #0x81, #0xFF, #0xC3
             C3
      0001E1 7E E7 3C FF 18         106 	.db	#0x7E, #0xE7, #0x3C, #0xFF, #0x18
      0001E6 F0 00                  107 	.db	#-16, #0x00
      0001E8 00                     108 	.db	#0
                                    109 ;--------------------------------------------------------
                                    110 ; Home
                                    111 ;--------------------------------------------------------
                                    112 	.area _HOME
                                    113 	.area _HOME
                                    114 ;--------------------------------------------------------
                                    115 ; code
                                    116 ;--------------------------------------------------------
                                    117 	.area _CODE
                                    118 	.area _CODE
                                    119 	.area _CABS (ABS)
